%YAML 1.1
%TAG !u! tag:unity3d.com,2011:
--- !u!21 &2100000
Material:
  serializedVersion: 3
  m_ObjectHideFlags: 0
  m_PrefabParentObject: {fileID: 0}
  m_PrefabInternal: {fileID: 0}
  m_Name: Hover
  m_Shader: {fileID: 4800000, guid: 0dd61024e431c604b98b065d182e0222, type: 3}
  m_SavedProperties:
    serializedVersion: 2
    m_TexEnvs:
      data:
        first:
          name: _MainTex
        second:
          m_Texture: {fileID: 2800000, guid: f8fa2eee04897e443ae939e8238d80a7, type: 3}
          m_Scale: {x: 1, y: 1}
          m_Offset: {x: 0, y: 0}
      data:
        first:
          name: _BumpMap
        second:
          m_Texture: {fileID: 2800000, guid: bcdf42294bdf78743bb708c8eceb7548, type: 3}
          m_Scale: {x: 1, y: 1}
          m_Offset: {x: 0, y: 0}
      data:
        first:
          name: _SpecularTex
        second:
          m_Texture: {fileID: 2800000, guid: a2c072fe0b3cdac4b85fa7d54afbdc21, type: 3}
          m_Scale: {x: 1, y: 1}
          m_Offset: {x: 0, y: 0}
      data:
        first:
          name: _RampTex
        second:
          m_Texture: {fileID: 2800000, guid: 8c24ce677edcdb04481dc0b4e9924ca2, type: 3}
          m_Scale: {x: 1, y: 1}
          m_Offset: {x: 0, y: 0}
    m_Floats:
      data:
        first:
          name: _RimPower
        second: 2.66538453
      data:
        first:
          name: _IllumPower
        second: 25
    m_Colors:
      data:
        first:
          name: _Color
        second: {r: .309803933, g: .882352948, b: .925490201, a: 1}
      data:
        first:
          name: _RimColor
        second: {r: .396743029, g: .99999994, b: .992631853, a: .219607845}
      data:
        first:
          name: _IllumTint
        second: {r: 0, g: .464833289, b: .588240385, a: 1}
      data:
        first:
          name: _ChannelA
        second: {r: .24626863, g: .24810645, b: .24810645, a: 1}
      data:
        first:
          name: _ChannelB
        second: {r: .276119411, g: .282301188, b: .282301188, a: 1}
      data:
        first:
          name: _ChannelC
        second: {r: .485074639, g: .485074639, b: .485074639, a: 1}
