%YAML 1.1
%TAG !u! tag:unity3d.com,2011:
--- !u!21 &2100000
Material:
  serializedVersion: 3
  m_ObjectHideFlags: 0
  m_PrefabParentObject: {fileID: 0}
  m_PrefabInternal: {fileID: 0}
  m_Name: feedback
  m_Shader: {fileID: 4800000, guid: 25d7e81d44396494f93ee82f8257384b, type: 1}
  m_SavedProperties:
    serializedVersion: 2
    m_TexEnvs:
      data:
        first:
          name: _MainTex
        second:
          m_Texture: {fileID: 2800000, guid: b47ab5284c951814bb56621708326405, type: 1}
          m_Scale: {x: 2, y: 1}
          m_Offset: {x: 0, y: 0}
      data:
        first:
          name: _BumpMap
        second:
          m_Texture: {fileID: 2800000, guid: a181ca8e3c62f3e4b8f183f6c586b032, type: 1}
          m_Scale: {x: .100000001, y: .5}
          m_Offset: {x: 0, y: 0}
      data:
        first:
          name: _SpecularTex
        second:
          m_Texture: {fileID: 2800000, guid: 62a5445fccaff2f45ad0bcb395037625, type: 1}
          m_Scale: {x: 1, y: 1}
          m_Offset: {x: 0, y: 0}
    m_Floats:
      data:
        first:
          name: _InvFade
        second: 3
      data:
        first:
          name: _RimPower
        second: 3
      data:
        first:
          name: _IllumPower
        second: 8.65384769
      data:
        first:
          name: _Fade
        second: 1
      data:
        first:
          name: _BumpAmt
        second: 10
    m_Colors:
      data:
        first:
          name: _Color
        second: {r: 1, g: 1, b: 1, a: 1}
      data:
        first:
          name: _TintColor
        second: {r: 0, g: .196089953, b: .678439975, a: .360784322}
      data:
        first:
          name: _RimColor
        second: {r: .970000029, g: .879999995, b: 1, a: .75}
      data:
        first:
          name: _IllumTint
        second: {r: 0, g: .748251855, b: .99999994, a: 1}
      data:
        first:
          name: _ChannelA
        second: {r: .134328365, g: .134328365, b: .134328365, a: 1}
      data:
        first:
          name: _ChannelB
        second: {r: .171641767, g: 0, b: 0, a: 1}
      data:
        first:
          name: _ChannelC
        second: {r: .24626863, g: .242592975, b: .242592975, a: 1}
