%YAML 1.1
%TAG !u! tag:unity3d.com,2011:
--- !u!21 &2100000
Material:
  serializedVersion: 3
  m_ObjectHideFlags: 0
  m_PrefabParentObject: {fileID: 0}
  m_PrefabInternal: {fileID: 0}
  m_Name: mcn_prj_arq_gen01_01
  m_Shader: {fileID: 4800000, guid: 0dd61024e431c604b98b065d182e0222, type: 1}
  m_SavedProperties:
    serializedVersion: 2
    m_TexEnvs:
      data:
        first:
          name: _MainTex
        second:
          m_Texture: {fileID: 2800000, guid: 23ad377aca705442ea22ab2d304a3edb, type: 1}
          m_Scale: {x: 1, y: 1}
          m_Offset: {x: 0, y: 0}
      data:
        first:
          name: _BumpMap
        second:
          m_Texture: {fileID: 2800000, guid: a7db631a93d85dd43a65e3db14cc9aea, type: 1}
          m_Scale: {x: 1, y: 1}
          m_Offset: {x: 0, y: 0}
      data:
        first:
          name: _RampTex
        second:
          m_Texture: {fileID: 2800000, guid: 8c24ce677edcdb04481dc0b4e9924ca2, type: 1}
          m_Scale: {x: 1, y: 1}
          m_Offset: {x: 0, y: 0}
      data:
        first:
          name: _SpecularTex
        second:
          m_Texture: {fileID: 2800000, guid: 0338d3da5b6ecb84dbb28b1e05f7c23f, type: 1}
          m_Scale: {x: 1, y: 1}
          m_Offset: {x: 0, y: 0}
    m_Floats:
      data:
        first:
          name: _RimPower
        second: 1.6615386
      data:
        first:
          name: _IllumPower
        second: 1.92307699
    m_Colors:
      data:
        first:
          name: _Color
        second: {r: 1, g: 1, b: 1, a: 1}
      data:
        first:
          name: _RimColor
        second: {r: .970000029, g: .879999995, b: 1, a: .882352948}
      data:
        first:
          name: _ChannelA
        second: {r: .552238822, g: .552238822, b: .552238822, a: 1}
      data:
        first:
          name: _ChannelB
        second: {r: 0, g: .79020977, b: 1, a: 1}
      data:
        first:
          name: _ChannelC
        second: {r: .0298507214, g: .0298507214, b: .0298507214, a: 1}
