%YAML 1.1
%TAG !u! tag:unity3d.com,2011:
--- !u!21 &2100000
Material:
  serializedVersion: 3
  m_ObjectHideFlags: 0
  m_PrefabParentObject: {fileID: 0}
  m_PrefabInternal: {fileID: 0}
  m_Name: PointLightBulb
  m_Shader: {fileID: 4800000, guid: 25d7e81d44396494f93ee82f8257384b, type: 1}
  m_SavedProperties:
    serializedVersion: 2
    m_TexEnvs:
      data:
        first:
          name: _MainTex
        second:
          m_Texture: {fileID: 2800000, guid: 6863de52ad08648cf9bfb86b7c9692a6, type: 1}
          m_Scale: {x: 1, y: 1}
          m_Offset: {x: 0, y: 0}
      data:
        first:
          name: _BumpMap
        second:
          m_Texture: {fileID: 2800000, guid: f2a7e56404c6c450b9b729f891366b5e, type: 1}
          m_Scale: {x: 1, y: 1}
          m_Offset: {x: 0, y: 0}
      data:
        first:
          name: _SpecularTex
        second:
          m_Texture: {fileID: 2800000, guid: 8812e3abba62b41998e01165257d4e4e, type: 1}
          m_Scale: {x: 1, y: 1}
          m_Offset: {x: 0, y: 0}
      data:
        first:
          name: _RampTex
        second:
          m_Texture: {fileID: 2800000, guid: 8c24ce677edcdb04481dc0b4e9924ca2, type: 1}
          m_Scale: {x: 1, y: 1}
          m_Offset: {x: 0, y: 0}
      data:
        first:
          name: _Cube
        second:
          m_Texture: {fileID: 0}
          m_Scale: {x: 1, y: 1}
          m_Offset: {x: 0, y: 0}
    m_Floats:
      data:
        first:
          name: _Cutoff
        second: .5
      data:
        first:
          name: _Shininess
        second: 1
      data:
        first:
          name: _RimPower
        second: 3
      data:
        first:
          name: _IllumPower
        second: 3.07692313
      data:
        first:
          name: _InvFade
        second: 1
      data:
        first:
          name: _Fade
        second: 3
    m_Colors:
      data:
        first:
          name: _Color
        second: {r: 1, g: .0433369353, b: .0107760429, a: 1}
      data:
        first:
          name: _SpecColor
        second: {r: .99999994, g: .985952973, b: .953167915, a: 1}
      data:
        first:
          name: _TintColor
        second: {r: 1, g: 1, b: 1, a: 1}
      data:
        first:
          name: _RimColor
        second: {r: .970000029, g: .879999995, b: 1, a: .75}
      data:
        first:
          name: _ChannelA
        second: {r: .977611959, g: .525284052, b: .525284052, a: 1}
      data:
        first:
          name: _ChannelB
        second: {r: .0431053899, g: .229605466, b: .962686539, a: 1}
      data:
        first:
          name: _ChannelC
        second: {r: .602027178, g: .701492548, b: .697319448, a: 1}
      data:
        first:
          name: _ReflectColor
        second: {r: .99999994, g: .99999994, b: .99999994, a: 1}
