%YAML 1.1
%TAG !u! tag:unity3d.com,2011:
--- !u!21 &2100000
Material:
  serializedVersion: 3
  m_ObjectHideFlags: 0
  m_PrefabParentObject: {fileID: 0}
  m_PrefabInternal: {fileID: 0}
  m_Name: bdy_cvr_tlt_gen03_06
  m_Shader: {fileID: 4800000, guid: 0dd61024e431c604b98b065d182e0222, type: 1}
  m_SavedProperties:
    serializedVersion: 2
    m_TexEnvs:
      data:
        first:
          name: _MainTex
        second:
          m_Texture: {fileID: 2800000, guid: 05c12b887fd3a0747a90264787c9a26b, type: 1}
          m_Scale: {x: 1, y: 1}
          m_Offset: {x: 0, y: 0}
      data:
        first:
          name: _BumpMap
        second:
          m_Texture: {fileID: 2800000, guid: 01536404868360b4faf2ed6593c7f855, type: 1}
          m_Scale: {x: 1, y: 1}
          m_Offset: {x: 0, y: 0}
      data:
        first:
          name: _SpecularTex
        second:
          m_Texture: {fileID: 2800000, guid: f41a89e6deb3920449451edbdef1acac, type: 1}
          m_Scale: {x: 1, y: 1}
          m_Offset: {x: 0, y: 0}
      data:
        first:
          name: _RampTex
        second:
          m_Texture: {fileID: 2800000, guid: 8c24ce677edcdb04481dc0b4e9924ca2, type: 1}
          m_Scale: {x: 1, y: 1}
          m_Offset: {x: 0, y: 0}
    m_Floats:
      data:
        first:
          name: _RimPower
        second: 3
    m_Colors:
      data:
        first:
          name: _Color
        second: {r: .800000012, g: .800000012, b: .800000012, a: 1}
      data:
        first:
          name: _RimColor
        second: {r: .25373137, g: .780816317, b: 1, a: .749019623}
      data:
        first:
          name: _ChannelA
        second: {r: .372549027, g: .372549027, b: .372549027, a: 1}
      data:
        first:
          name: _ChannelB
        second: {r: .572549045, g: .650980413, b: .662745118, a: 1}
      data:
        first:
          name: _ChannelC
        second: {r: .0666666701, g: .0666666701, b: .0666666701, a: 1}
