%YAML 1.1
%TAG !u! tag:unity3d.com,2011:
--- !u!29 &1
SceneSettings:
  m_ObjectHideFlags: 0
  m_PVSData: 
  m_QueryMode: 1
  m_PVSObjectsArray: []
  m_PVSPortalsArray: []
  m_OcclusionBakeSettings:
    viewCellSize: 1
    bakeMode: 2
    memoryUsage: 10485760
--- !u!104 &2
RenderSettings:
  m_Fog: 1
  m_FogColor: {r: 0, g: 0, b: 0, a: 1}
  m_FogMode: 1
  m_FogDensity: .000500000024
  m_LinearFogStart: 100
  m_LinearFogEnd: 500
  m_AmbientLight: {r: 0, g: 0, b: 0, a: 1}
  m_SkyboxMaterial: {fileID: 0}
  m_HaloStrength: .5
  m_FlareStrength: 1
  m_HaloTexture: {fileID: 0}
  m_SpotCookie: {fileID: 0}
  m_ObjectHideFlags: 0
--- !u!127 &3
GameManager:
  m_ObjectHideFlags: 0
--- !u!157 &4
LightmapSettings:
  m_ObjectHideFlags: 0
  m_LightProbes: {fileID: 0}
  m_Lightmaps: []
  m_LightmapsMode: 1
  m_BakedColorSpace: 0
  m_UseDualLightmapsInForward: 0
  m_LightmapEditorSettings:
    m_Resolution: 50
    m_LastUsedResolution: 0
    m_TextureWidth: 1024
    m_TextureHeight: 1024
    m_BounceBoost: 1
    m_BounceIntensity: 1
    m_SkyLightColor: {r: .860000014, g: .930000007, b: 1, a: 1}
    m_SkyLightIntensity: 0
    m_Quality: 0
    m_Bounces: 1
    m_FinalGatherRays: 1000
    m_FinalGatherContrastThreshold: .0500000007
    m_FinalGatherGradientThreshold: 0
    m_FinalGatherInterpolationPoints: 15
    m_AOAmount: 0
    m_AOMaxDistance: .100000001
    m_AOContrast: 1
    m_LODSurfaceMappingDistance: 1
    m_Padding: 0
    m_TextureCompression: 0
    m_LockAtlas: 0
--- !u!196 &5
NavMeshSettings:
  m_ObjectHideFlags: 0
  m_BuildSettings:
    agentRadius: .5
    agentHeight: 2
    agentSlope: 45
    agentClimb: .400000006
    ledgeDropHeight: 0
    maxJumpAcrossDistance: 0
    accuratePlacement: 0
    minRegionArea: 2
    widthInaccuracy: 16.666666
    heightInaccuracy: 10
  m_NavMesh: {fileID: 0}
--- !u!1 &51238634
GameObject:
  m_ObjectHideFlags: 0
  m_PrefabParentObject: {fileID: 100022, guid: 35957c42b06f5464dad63783019724fa, type: 2}
  m_PrefabInternal: {fileID: 467471607}
  serializedVersion: 4
  m_Component:
  - 4: {fileID: 51238635}
  - 33: {fileID: 51238637}
  - 114: {fileID: 51238638}
  - 82: {fileID: 51238639}
  m_Layer: 17
  m_Name: TitleLogo
  m_TagString: Untagged
  m_Icon: {fileID: 0}
  m_NavMeshLayer: 0
  m_StaticEditorFlags: 0
  m_IsActive: 1
--- !u!4 &51238635
Transform:
  m_ObjectHideFlags: 0
  m_PrefabParentObject: {fileID: 400022, guid: 35957c42b06f5464dad63783019724fa, type: 2}
  m_PrefabInternal: {fileID: 467471607}
  m_GameObject: {fileID: 51238634}
  m_LocalRotation: {x: -1.15483999e-07, y: .707106769, z: -.707106888, w: -1.2665987e-07}
  m_LocalPosition: {x: 2.58684158e-05, y: 2.16960907e-05, z: 3.00003242}
  m_LocalScale: {x: 2, y: 1, z: 1}
  m_Children: []
  m_Father: {fileID: 1044915035}
--- !u!33 &51238637
MeshFilter:
  m_ObjectHideFlags: 0
  m_PrefabParentObject: {fileID: 3300002, guid: 35957c42b06f5464dad63783019724fa,
    type: 2}
  m_PrefabInternal: {fileID: 467471607}
  m_GameObject: {fileID: 51238634}
  m_Mesh: {fileID: 4300000, guid: 77ca0cdd77cad484fb56a870911214e7, type: 3}
--- !u!114 &51238638
MonoBehaviour:
  m_ObjectHideFlags: 0
  m_PrefabParentObject: {fileID: 11400026, guid: 35957c42b06f5464dad63783019724fa,
    type: 2}
  m_PrefabInternal: {fileID: 467471607}
  m_GameObject: {fileID: 51238634}
  m_Enabled: 1
  m_EditorHideFlags: 0
  m_Script: {fileID: 11500000, guid: 30feef93d4ed64caebc8e46240e3231e, type: 3}
  m_Name: 
  aura: {fileID: 1430760921}
  logo: {fileID: 1630004981}
--- !u!82 &51238639
AudioSource:
  m_ObjectHideFlags: 0
  m_PrefabParentObject: {fileID: 8200002, guid: 35957c42b06f5464dad63783019724fa,
    type: 2}
  m_PrefabInternal: {fileID: 467471607}
  m_GameObject: {fileID: 51238634}
  m_Enabled: 1
  serializedVersion: 3
  m_audioClip: {fileID: 8300000, guid: 41e5cde32adfa470084d079bc738877b, type: 3}
  m_PlayOnAwake: 1
  m_Volume: 1
  m_Pitch: 1
  Loop: 0
  Mute: 0
  Priority: 128
  DopplerLevel: 1
  MinDistance: 1
  MaxDistance: 500
  Pan2D: 0
  rolloffMode: 0
  BypassEffects: 0
  rolloffCustomCurve:
    serializedVersion: 2
    m_Curve:
    - time: 0
      value: 1
      inSlope: 0
      outSlope: 0
      tangentMode: 0
    - time: 1
      value: 0
      inSlope: 0
      outSlope: 0
      tangentMode: 0
    m_PreInfinity: 2
    m_PostInfinity: 2
  panLevelCustomCurve:
    serializedVersion: 2
    m_Curve:
    - time: 0
      value: 1
      inSlope: 0
      outSlope: 0
      tangentMode: 0
    m_PreInfinity: 2
    m_PostInfinity: 2
  spreadCustomCurve:
    serializedVersion: 2
    m_Curve:
    - time: 0
      value: 0
      inSlope: 0
      outSlope: 0
      tangentMode: 0
    m_PreInfinity: 2
    m_PostInfinity: 2
--- !u!1 &59726050
GameObject:
  m_ObjectHideFlags: 0
  m_PrefabParentObject: {fileID: 100006, guid: 35957c42b06f5464dad63783019724fa, type: 2}
  m_PrefabInternal: {fileID: 467471607}
  serializedVersion: 4
  m_Component:
  - 4: {fileID: 59726051}
  - 102: {fileID: 59726053}
  - 23: {fileID: 59726052}
  m_Layer: 30
  m_Name: ContextLine
  m_TagString: Untagged
  m_Icon: {fileID: 0}
  m_NavMeshLayer: 0
  m_StaticEditorFlags: 0
  m_IsActive: 1
--- !u!4 &59726051
Transform:
  m_ObjectHideFlags: 0
  m_PrefabParentObject: {fileID: 400006, guid: 35957c42b06f5464dad63783019724fa, type: 2}
  m_PrefabInternal: {fileID: 467471607}
  m_GameObject: {fileID: 59726050}
  m_LocalRotation: {x: 0, y: 0, z: 0, w: 1}
  m_LocalPosition: {x: -.0399999991, y: 0, z: 0}
  m_LocalScale: {x: 1, y: 1, z: 1}
  m_Children: []
  m_Father: {fileID: 1471192325}
--- !u!23 &59726052
Renderer:
  m_ObjectHideFlags: 0
  m_PrefabParentObject: {fileID: 2300004, guid: 35957c42b06f5464dad63783019724fa,
    type: 2}
  m_PrefabInternal: {fileID: 467471607}
  m_GameObject: {fileID: 59726050}
  m_Enabled: 1
  m_CastShadows: 0
  m_ReceiveShadows: 0
  m_LightmapIndex: 255
  m_LightmapTilingOffset: {x: 1, y: 1, z: 0, w: 0}
  m_Materials:
  - {fileID: 2100000, guid: ba4f4b55f5d8349f78a4a719ff8439ed, type: 3}
  m_SubsetIndices: 
  m_StaticBatchRoot: {fileID: 0}
  m_UseLightProbes: 0
  m_LightProbeAnchor: {fileID: 0}
  m_ScaleInLightmap: 1
--- !u!102 &59726053
TextMesh:
  serializedVersion: 3
  m_ObjectHideFlags: 0
  m_PrefabParentObject: {fileID: 10200004, guid: 35957c42b06f5464dad63783019724fa,
    type: 2}
  m_PrefabInternal: {fileID: 467471607}
  m_GameObject: {fileID: 59726050}
  m_Text: 
  m_OffsetZ: 0
  m_CharacterSize: .0399999991
  m_LineSpacing: 1
  m_Anchor: 8
  m_Alignment: 2
  m_TabSize: 4
  m_FontSize: 0
  m_FontStyle: 0
  m_RichText: 1
  m_Font: {fileID: 12800000, guid: ba4f4b55f5d8349f78a4a719ff8439ed, type: 3}
--- !u!1 &85064509
GameObject:
  m_ObjectHideFlags: 0
  m_PrefabParentObject: {fileID: 100032, guid: 35957c42b06f5464dad63783019724fa, type: 2}
  m_PrefabInternal: {fileID: 467471607}
  serializedVersion: 4
  m_Component:
  - 4: {fileID: 85064510}
  - 33: {fileID: 85064511}
  - 23: {fileID: 85064512}
  m_Layer: 17
  m_Name: PirateLogo
  m_TagString: Untagged
  m_Icon: {fileID: 0}
  m_NavMeshLayer: 0
  m_StaticEditorFlags: 0
  m_IsActive: 0
--- !u!4 &85064510
Transform:
  m_ObjectHideFlags: 0
  m_PrefabParentObject: {fileID: 400032, guid: 35957c42b06f5464dad63783019724fa, type: 2}
  m_PrefabInternal: {fileID: 467471607}
  m_GameObject: {fileID: 85064509}
  m_LocalRotation: {x: -8.19563937e-08, y: -.707106829, z: .707106829, w: -1.08033426e-07}
  m_LocalPosition: {x: -15.0847912, y: 7.53375387, z: 5.00003242}
  m_LocalScale: {x: 2.5, y: 2.5, z: 2.5}
  m_Children: []
  m_Father: {fileID: 1044915035}
--- !u!33 &85064511
MeshFilter:
  m_ObjectHideFlags: 0
  m_PrefabParentObject: {fileID: 3300008, guid: 35957c42b06f5464dad63783019724fa,
    type: 2}
  m_PrefabInternal: {fileID: 467471607}
  m_GameObject: {fileID: 85064509}
  m_Mesh: {fileID: 4300000, guid: 77ca0cdd77cad484fb56a870911214e7, type: 3}
--- !u!23 &85064512
Renderer:
  m_ObjectHideFlags: 0
  m_PrefabParentObject: {fileID: 2300018, guid: 35957c42b06f5464dad63783019724fa,
    type: 2}
  m_PrefabInternal: {fileID: 467471607}
  m_GameObject: {fileID: 85064509}
  m_Enabled: 0
  m_CastShadows: 1
  m_ReceiveShadows: 1
  m_LightmapIndex: 255
  m_LightmapTilingOffset: {x: 1, y: 1, z: 0, w: 0}
  m_Materials:
  - {fileID: 2100000, guid: 7b52b1b05b3a64bb1b6e1da1b954dfb3, type: 2}
  m_SubsetIndices: 
  m_StaticBatchRoot: {fileID: 0}
  m_UseLightProbes: 0
  m_LightProbeAnchor: {fileID: 0}
  m_ScaleInLightmap: 1
--- !u!1 &92704357
GameObject:
  m_ObjectHideFlags: 0
  m_PrefabParentObject: {fileID: 100026, guid: 35957c42b06f5464dad63783019724fa, type: 2}
  m_PrefabInternal: {fileID: 467471607}
  serializedVersion: 4
  m_Component:
  - 4: {fileID: 92704358}
  m_Layer: 30
  m_Name: Items
  m_TagString: Untagged
  m_Icon: {fileID: 0}
  m_NavMeshLayer: 0
  m_StaticEditorFlags: 0
  m_IsActive: 1
--- !u!4 &92704358
Transform:
  m_ObjectHideFlags: 0
  m_PrefabParentObject: {fileID: 400026, guid: 35957c42b06f5464dad63783019724fa, type: 2}
  m_PrefabInternal: {fileID: 467471607}
  m_GameObject: {fileID: 92704357}
  m_LocalRotation: {x: 0, y: 0, z: 0, w: 1}
  m_LocalPosition: {x: -2, y: -.5, z: 0}
  m_LocalScale: {x: 1, y: 1, z: 1}
  m_Children:
  - {fileID: 1944351028}
  - {fileID: 1471192325}
  - {fileID: 1257930145}
  m_Father: {fileID: 1943628679}
--- !u!1 &117871415
GameObject:
  m_ObjectHideFlags: 0
  m_PrefabParentObject: {fileID: 100042, guid: 35957c42b06f5464dad63783019724fa, type: 2}
  m_PrefabInternal: {fileID: 467471607}
  serializedVersion: 4
  m_Component:
  - 4: {fileID: 117871416}
  m_Layer: 17
  m_Name: LoadScreen
  m_TagString: Untagged
  m_Icon: {fileID: 0}
  m_NavMeshLayer: 0
  m_StaticEditorFlags: 0
  m_IsActive: 1
--- !u!4 &117871416
Transform:
  m_ObjectHideFlags: 0
  m_PrefabParentObject: {fileID: 400042, guid: 35957c42b06f5464dad63783019724fa, type: 2}
  m_PrefabInternal: {fileID: 467471607}
  m_GameObject: {fileID: 117871415}
  m_LocalRotation: {x: -1.08033404e-07, y: .707106769, z: -.707106888, w: -1.45286307e-07}
  m_LocalPosition: {x: .352020264, y: 8.31484795e-05, z: 2.99997663}
  m_LocalScale: {x: 15, y: 1, z: 15}
  m_Children:
  - {fileID: 1630004980}
  - {fileID: 1430760920}
  m_Father: {fileID: 1044915035}
--- !u!1 &174865645
GameObject:
  m_ObjectHideFlags: 0
  m_PrefabParentObject: {fileID: 100024, guid: 35957c42b06f5464dad63783019724fa, type: 2}
  m_PrefabInternal: {fileID: 467471607}
  serializedVersion: 4
  m_Component:
  - 4: {fileID: 174865646}
  - 114: {fileID: 174865647}
  m_Layer: 15
  m_Name: Atmosphere
  m_TagString: Untagged
  m_Icon: {fileID: 0}
  m_NavMeshLayer: 0
  m_StaticEditorFlags: 0
  m_IsActive: 1
--- !u!4 &174865646
Transform:
  m_ObjectHideFlags: 0
  m_PrefabParentObject: {fileID: 400024, guid: 35957c42b06f5464dad63783019724fa, type: 2}
  m_PrefabInternal: {fileID: 467471607}
  m_GameObject: {fileID: 174865645}
  m_LocalRotation: {x: 0, y: 0, z: 0, w: 1}
  m_LocalPosition: {x: 0, y: 0, z: 0}
  m_LocalScale: {x: 1, y: 1, z: 1}
  m_Children:
  - {fileID: 982324083}
  - {fileID: 245651929}
  m_Father: {fileID: 1148510266}
--- !u!114 &174865647
MonoBehaviour:
  m_ObjectHideFlags: 0
  m_PrefabParentObject: {fileID: 11400028, guid: 35957c42b06f5464dad63783019724fa,
    type: 2}
  m_PrefabInternal: {fileID: 467471607}
  m_GameObject: {fileID: 174865645}
  m_Enabled: 1
  m_EditorHideFlags: 0
  m_Script: {fileID: 11500000, guid: 44a2c771296074b039944740cefe0c13, type: 3}
  m_Name: 
--- !u!1 &178429953
GameObject:
  m_ObjectHideFlags: 0
  m_PrefabParentObject: {fileID: 100046, guid: 35957c42b06f5464dad63783019724fa, type: 2}
  m_PrefabInternal: {fileID: 467471607}
  serializedVersion: 4
  m_Component:
  - 4: {fileID: 178429954}
  - 33: {fileID: 178429956}
  - 23: {fileID: 178429955}
  m_Layer: 30
  m_Name: ConsoleLineBack
  m_TagString: Untagged
  m_Icon: {fileID: 0}
  m_NavMeshLayer: 0
  m_StaticEditorFlags: 0
  m_IsActive: 1
--- !u!4 &178429954
Transform:
  m_ObjectHideFlags: 0
  m_PrefabParentObject: {fileID: 400046, guid: 35957c42b06f5464dad63783019724fa, type: 2}
  m_PrefabInternal: {fileID: 467471607}
  m_GameObject: {fileID: 178429953}
  m_LocalRotation: {x: 0, y: 1, z: 0, w: -1.62920685e-07}
  m_LocalPosition: {x: 0, y: -.529999971, z: 1}
  m_LocalScale: {x: 8, y: .300000012, z: 1}
  m_Children: []
  m_Father: {fileID: 1943628679}
--- !u!23 &178429955
Renderer:
  m_ObjectHideFlags: 0
  m_PrefabParentObject: {fileID: 2300030, guid: 35957c42b06f5464dad63783019724fa,
    type: 2}
  m_PrefabInternal: {fileID: 467471607}
  m_GameObject: {fileID: 178429953}
  m_Enabled: 1
  m_CastShadows: 0
  m_ReceiveShadows: 0
  m_LightmapIndex: 255
  m_LightmapTilingOffset: {x: 1, y: 1, z: 0, w: 0}
  m_Materials:
  - {fileID: 2100000, guid: 02702e528005f4bcd86575625400078c, type: 2}
  m_SubsetIndices: 
  m_StaticBatchRoot: {fileID: 0}
  m_UseLightProbes: 0
  m_LightProbeAnchor: {fileID: 0}
  m_ScaleInLightmap: 1
--- !u!33 &178429956
MeshFilter:
  m_ObjectHideFlags: 0
  m_PrefabParentObject: {fileID: 3300018, guid: 35957c42b06f5464dad63783019724fa,
    type: 2}
  m_PrefabInternal: {fileID: 467471607}
  m_GameObject: {fileID: 178429953}
  m_Mesh: {fileID: 4300004, guid: b46658805bf3b491fbaa8abf38c8a1bf, type: 3}
--- !u!1 &245651928
GameObject:
  m_ObjectHideFlags: 0
  m_PrefabParentObject: {fileID: 100034, guid: 35957c42b06f5464dad63783019724fa, type: 2}
  m_PrefabInternal: {fileID: 467471607}
  serializedVersion: 4
  m_Component:
  - 4: {fileID: 245651929}
  - 33: {fileID: 245651931}
  - 23: {fileID: 245651930}
  - 114: {fileID: 245651932}
  m_Layer: 4
  m_Name: IcoWaterCaustics
  m_TagString: Untagged
  m_Icon: {fileID: 0}
  m_NavMeshLayer: 0
  m_StaticEditorFlags: 0
  m_IsActive: 0
--- !u!4 &245651929
Transform:
  m_ObjectHideFlags: 0
  m_PrefabParentObject: {fileID: 400034, guid: 35957c42b06f5464dad63783019724fa, type: 2}
  m_PrefabInternal: {fileID: 467471607}
  m_GameObject: {fileID: 245651928}
  m_LocalRotation: {x: 0, y: 0, z: 0, w: 1}
  m_LocalPosition: {x: 0, y: 0, z: 0}
  m_LocalScale: {x: 300, y: 300, z: 300}
  m_Children: []
  m_Father: {fileID: 174865646}
--- !u!23 &245651930
Renderer:
  m_ObjectHideFlags: 0
  m_PrefabParentObject: {fileID: 2300020, guid: 35957c42b06f5464dad63783019724fa,
    type: 2}
  m_PrefabInternal: {fileID: 467471607}
  m_GameObject: {fileID: 245651928}
  m_Enabled: 1
  m_CastShadows: 0
  m_ReceiveShadows: 0
  m_LightmapIndex: 255
  m_LightmapTilingOffset: {x: 1, y: 1, z: 0, w: 0}
  m_Materials:
  - {fileID: 2100000, guid: 4bbf16967597f437daaa8146f222a268, type: 2}
  m_SubsetIndices: 
  m_StaticBatchRoot: {fileID: 0}
  m_UseLightProbes: 0
  m_LightProbeAnchor: {fileID: 0}
  m_ScaleInLightmap: 1
--- !u!33 &245651931
MeshFilter:
  m_ObjectHideFlags: 0
  m_PrefabParentObject: {fileID: 3300010, guid: 35957c42b06f5464dad63783019724fa,
    type: 2}
  m_PrefabInternal: {fileID: 467471607}
  m_GameObject: {fileID: 245651928}
  m_Mesh: {fileID: 4300000, guid: 675dbbd402ac146b082bd9ed8844223c, type: 3}
--- !u!114 &245651932
MonoBehaviour:
  m_ObjectHideFlags: 0
  m_PrefabParentObject: {fileID: 11400034, guid: 35957c42b06f5464dad63783019724fa,
    type: 2}
  m_PrefabInternal: {fileID: 467471607}
  m_GameObject: {fileID: 245651928}
  m_Enabled: 1
  m_EditorHideFlags: 0
  m_Script: {fileID: 11500000, guid: b0f57e145975043a1b03b6dddb0f7a7c, type: 3}
  m_Name: 
--- !u!1001 &258361279
Prefab:
  m_ObjectHideFlags: 0
  serializedVersion: 2
  m_Modification:
    m_TransformParent: {fileID: 0}
    m_Modifications:
    - target: {fileID: 400000, guid: de0c96205ce5a455aaeed907b914eae6, type: 2}
      propertyPath: m_LocalPosition.x
      value: 0
      objectReference: {fileID: 0}
    - target: {fileID: 400000, guid: de0c96205ce5a455aaeed907b914eae6, type: 2}
      propertyPath: m_LocalPosition.y
      value: 0
      objectReference: {fileID: 0}
    - target: {fileID: 400000, guid: de0c96205ce5a455aaeed907b914eae6, type: 2}
      propertyPath: m_LocalPosition.z
      value: 0
      objectReference: {fileID: 0}
    - target: {fileID: 400000, guid: de0c96205ce5a455aaeed907b914eae6, type: 2}
      propertyPath: m_LocalRotation.x
      value: 0
      objectReference: {fileID: 0}
    - target: {fileID: 400000, guid: de0c96205ce5a455aaeed907b914eae6, type: 2}
      propertyPath: m_LocalRotation.y
      value: 0
      objectReference: {fileID: 0}
    - target: {fileID: 400000, guid: de0c96205ce5a455aaeed907b914eae6, type: 2}
      propertyPath: m_LocalRotation.z
      value: 0
      objectReference: {fileID: 0}
    - target: {fileID: 400000, guid: de0c96205ce5a455aaeed907b914eae6, type: 2}
      propertyPath: m_LocalRotation.w
      value: 1
      objectReference: {fileID: 0}
    - target: {fileID: 11400002, guid: de0c96205ce5a455aaeed907b914eae6, type: 2}
      propertyPath: console
      value: 
      objectReference: {fileID: 1943628680}
    - target: {fileID: 11400002, guid: de0c96205ce5a455aaeed907b914eae6, type: 2}
      propertyPath: helper
      value: 
      objectReference: {fileID: 0}
    - target: {fileID: 11400004, guid: de0c96205ce5a455aaeed907b914eae6, type: 2}
      propertyPath: gameCamera
      value: 
      objectReference: {fileID: 1148510271}
    m_RemovedComponents: []
  m_ParentPrefab: {fileID: 100100000, guid: de0c96205ce5a455aaeed907b914eae6, type: 2}
  m_RootGameObject: {fileID: 692085944}
  m_IsPrefabParent: 0
  m_IsExploded: 1
--- !u!1001 &272214143
Prefab:
  m_ObjectHideFlags: 0
  serializedVersion: 2
  m_Modification:
    m_TransformParent: {fileID: 692085945}
    m_Modifications:
    - target: {fileID: 400000, guid: 56bdb477235054d37bd5538722356c48, type: 2}
      propertyPath: m_LocalPosition.x
      value: 0
      objectReference: {fileID: 0}
    - target: {fileID: 400000, guid: 56bdb477235054d37bd5538722356c48, type: 2}
      propertyPath: m_LocalPosition.y
      value: 0
      objectReference: {fileID: 0}
    - target: {fileID: 400000, guid: 56bdb477235054d37bd5538722356c48, type: 2}
      propertyPath: m_LocalPosition.z
      value: 0
      objectReference: {fileID: 0}
    - target: {fileID: 400000, guid: 56bdb477235054d37bd5538722356c48, type: 2}
      propertyPath: m_LocalRotation.x
      value: 0
      objectReference: {fileID: 0}
    - target: {fileID: 400000, guid: 56bdb477235054d37bd5538722356c48, type: 2}
      propertyPath: m_LocalRotation.y
      value: 0
      objectReference: {fileID: 0}
    - target: {fileID: 400000, guid: 56bdb477235054d37bd5538722356c48, type: 2}
      propertyPath: m_LocalRotation.z
      value: 0
      objectReference: {fileID: 0}
    - target: {fileID: 400000, guid: 56bdb477235054d37bd5538722356c48, type: 2}
      propertyPath: m_LocalRotation.w
      value: 1
      objectReference: {fileID: 0}
    m_RemovedComponents: []
  m_ParentPrefab: {fileID: 100100000, guid: 56bdb477235054d37bd5538722356c48, type: 2}
  m_RootGameObject: {fileID: 1467839667}
  m_IsPrefabParent: 0
  m_IsExploded: 1
--- !u!1 &294231052
GameObject:
  m_ObjectHideFlags: 0
  m_PrefabParentObject: {fileID: 100002, guid: 35957c42b06f5464dad63783019724fa, type: 2}
  m_PrefabInternal: {fileID: 467471607}
  serializedVersion: 4
  m_Component:
  - 4: {fileID: 294231053}
  - 102: {fileID: 294231055}
  - 23: {fileID: 294231054}
  m_Layer: 30
  m_Name: ContextLogLine
  m_TagString: Untagged
  m_Icon: {fileID: 0}
  m_NavMeshLayer: 0
  m_StaticEditorFlags: 0
  m_IsActive: 1
--- !u!4 &294231053
Transform:
  m_ObjectHideFlags: 0
  m_PrefabParentObject: {fileID: 400002, guid: 35957c42b06f5464dad63783019724fa, type: 2}
  m_PrefabInternal: {fileID: 467471607}
  m_GameObject: {fileID: 294231052}
  m_LocalRotation: {x: 0, y: 0, z: 0, w: 1}
  m_LocalPosition: {x: -.0399999991, y: 0, z: 0}
  m_LocalScale: {x: 1, y: 1, z: 1}
  m_Children: []
  m_Father: {fileID: 1257930145}
--- !u!23 &294231054
Renderer:
  m_ObjectHideFlags: 0
  m_PrefabParentObject: {fileID: 2300002, guid: 35957c42b06f5464dad63783019724fa,
    type: 2}
  m_PrefabInternal: {fileID: 467471607}
  m_GameObject: {fileID: 294231052}
  m_Enabled: 1
  m_CastShadows: 0
  m_ReceiveShadows: 0
  m_LightmapIndex: 255
  m_LightmapTilingOffset: {x: 1, y: 1, z: 0, w: 0}
  m_Materials:
  - {fileID: 2100000, guid: ba4f4b55f5d8349f78a4a719ff8439ed, type: 3}
  m_SubsetIndices: 
  m_StaticBatchRoot: {fileID: 0}
  m_UseLightProbes: 0
  m_LightProbeAnchor: {fileID: 0}
  m_ScaleInLightmap: 1
--- !u!102 &294231055
TextMesh:
  serializedVersion: 3
  m_ObjectHideFlags: 0
  m_PrefabParentObject: {fileID: 10200002, guid: 35957c42b06f5464dad63783019724fa,
    type: 2}
  m_PrefabInternal: {fileID: 467471607}
  m_GameObject: {fileID: 294231052}
  m_Text: 
  m_OffsetZ: 0
  m_CharacterSize: .0399999991
  m_LineSpacing: 1
  m_Anchor: 8
  m_Alignment: 2
  m_TabSize: 4
  m_FontSize: 0
  m_FontStyle: 0
  m_RichText: 1
  m_Font: {fileID: 12800000, guid: ba4f4b55f5d8349f78a4a719ff8439ed, type: 3}
--- !u!1001 &467471607
Prefab:
  m_ObjectHideFlags: 0
  serializedVersion: 2
  m_Modification:
    m_TransformParent: {fileID: 0}
    m_Modifications:
    - target: {fileID: 400000, guid: 35957c42b06f5464dad63783019724fa, type: 2}
      propertyPath: m_LocalPosition.x
      value: 0
      objectReference: {fileID: 0}
    - target: {fileID: 400000, guid: 35957c42b06f5464dad63783019724fa, type: 2}
      propertyPath: m_LocalPosition.y
      value: -1000
      objectReference: {fileID: 0}
    - target: {fileID: 400000, guid: 35957c42b06f5464dad63783019724fa, type: 2}
      propertyPath: m_LocalPosition.z
      value: 0
      objectReference: {fileID: 0}
    - target: {fileID: 400000, guid: 35957c42b06f5464dad63783019724fa, type: 2}
      propertyPath: m_LocalRotation.x
      value: 0
      objectReference: {fileID: 0}
    - target: {fileID: 400000, guid: 35957c42b06f5464dad63783019724fa, type: 2}
      propertyPath: m_LocalRotation.y
      value: 0
      objectReference: {fileID: 0}
    - target: {fileID: 400000, guid: 35957c42b06f5464dad63783019724fa, type: 2}
      propertyPath: m_LocalRotation.z
      value: 0
      objectReference: {fileID: 0}
    - target: {fileID: 400000, guid: 35957c42b06f5464dad63783019724fa, type: 2}
      propertyPath: m_LocalRotation.w
      value: 1
      objectReference: {fileID: 0}
    - target: {fileID: 100032, guid: 35957c42b06f5464dad63783019724fa, type: 2}
      propertyPath: m_IsActive
      value: 0
      objectReference: {fileID: 0}
    - target: {fileID: 100034, guid: 35957c42b06f5464dad63783019724fa, type: 2}
      propertyPath: m_IsActive
      value: 0
      objectReference: {fileID: 0}
    - target: {fileID: 100036, guid: 35957c42b06f5464dad63783019724fa, type: 2}
      propertyPath: m_IsActive
      value: 0
      objectReference: {fileID: 0}
    - target: {fileID: 100004, guid: 35957c42b06f5464dad63783019724fa, type: 2}
      propertyPath: m_IsActive
      value: 0
      objectReference: {fileID: 0}
    - target: {fileID: 10200012, guid: 35957c42b06f5464dad63783019724fa, type: 2}
      propertyPath: m_Text
      value: v0.0.10
      objectReference: {fileID: 0}
    - target: {fileID: 100014, guid: 35957c42b06f5464dad63783019724fa, type: 2}
      propertyPath: m_IsActive
      value: 0
      objectReference: {fileID: 0}
    - target: {fileID: 2300008, guid: 35957c42b06f5464dad63783019724fa, type: 2}
      propertyPath: m_Enabled
      value: 0
      objectReference: {fileID: 0}
    - target: {fileID: 6500000, guid: 35957c42b06f5464dad63783019724fa, type: 2}
      propertyPath: m_Enabled
      value: 0
      objectReference: {fileID: 0}
    - target: {fileID: 11400040, guid: 35957c42b06f5464dad63783019724fa, type: 2}
      propertyPath: m_Enabled
      value: 0
      objectReference: {fileID: 0}
    - target: {fileID: 11400000, guid: 35957c42b06f5464dad63783019724fa, type: 2}
      propertyPath: tileAsset
      value: 
      objectReference: {fileID: 100000, guid: 99b593d76b59545998da002001e0f89c, type: 2}
    - target: {fileID: 11400012, guid: 35957c42b06f5464dad63783019724fa, type: 2}
      propertyPath: mainCamera
      value: 
      objectReference: {fileID: 1148510267}
    m_RemovedComponents: []
  m_ParentPrefab: {fileID: 100100000, guid: 35957c42b06f5464dad63783019724fa, type: 2}
  m_RootGameObject: {fileID: 1148510265}
  m_IsPrefabParent: 0
  m_IsExploded: 1
--- !u!1 &617643143
GameObject:
  m_ObjectHideFlags: 0
  m_PrefabParentObject: {fileID: 0}
  m_PrefabInternal: {fileID: 0}
  serializedVersion: 4
  m_Component:
  - 4: {fileID: 617643144}
  - 108: {fileID: 617643145}
  m_Layer: 0
  m_Name: DirectLight
  m_TagString: Untagged
  m_Icon: {fileID: 0}
  m_NavMeshLayer: 0
  m_StaticEditorFlags: 0
  m_IsActive: 1
--- !u!4 &617643144
Transform:
  m_ObjectHideFlags: 0
  m_PrefabParentObject: {fileID: 0}
  m_PrefabInternal: {fileID: 0}
  m_GameObject: {fileID: 617643143}
  m_LocalRotation: {x: .00880202185, y: .00864972267, z: .00864972267, w: .999886453}
  m_LocalPosition: {x: 0, y: 0, z: 0}
  m_LocalScale: {x: 1, y: 1, z: 1}
  m_Children: []
  m_Father: {fileID: 1810635131}
--- !u!108 &617643145
Light:
  m_ObjectHideFlags: 0
  m_PrefabParentObject: {fileID: 0}
  m_PrefabInternal: {fileID: 0}
  m_GameObject: {fileID: 617643143}
  m_Enabled: 1
  serializedVersion: 3
  m_Type: 1
  m_Color: {r: 0, g: .228728846, b: .453600615, a: 1}
  m_Intensity: .300000012
  m_Range: 10
  m_SpotAngle: 30
  m_CookieSize: 10
  m_Shadows:
    m_Type: 1
    m_Resolution: -1
    m_Strength: 1
    m_Bias: .5
    m_Softness: 4
    m_SoftnessFade: 1
  m_Cookie: {fileID: 0}
  m_DrawHalo: 0
  m_ActuallyLightmapped: 0
  m_Flare: {fileID: 0}
  m_RenderMode: 0
  m_CullingMask:
    serializedVersion: 2
    m_Bits: 4294967295
  m_Lightmapping: 1
  m_ShadowSamples: 1
  m_ShadowRadius: 0
  m_ShadowAngle: 0
  m_IndirectIntensity: 1
  m_AreaSize: {x: 1, y: 1}
--- !u!1 &692085944
GameObject:
  m_ObjectHideFlags: 0
  m_PrefabParentObject: {fileID: 100000, guid: de0c96205ce5a455aaeed907b914eae6, type: 2}
  m_PrefabInternal: {fileID: 258361279}
  serializedVersion: 4
  m_Component:
  - 4: {fileID: 692085945}
  - 114: {fileID: 692085946}
  - 114: {fileID: 692085948}
  - 114: {fileID: 692085947}
  - 114: {fileID: 692085949}
  - 114: {fileID: 692085950}
  - 114: {fileID: 692085951}
  - 114: {fileID: 692085952}
  - 114: {fileID: 692085953}
  - 114: {fileID: 692085954}
  m_Layer: 0
  m_Name: Gaia
  m_TagString: Untagged
  m_Icon: {fileID: 0}
  m_NavMeshLayer: 0
  m_StaticEditorFlags: 0
  m_IsActive: 1
--- !u!4 &692085945
Transform:
  m_ObjectHideFlags: 0
  m_PrefabParentObject: {fileID: 400000, guid: de0c96205ce5a455aaeed907b914eae6, type: 2}
  m_PrefabInternal: {fileID: 258361279}
  m_GameObject: {fileID: 692085944}
  m_LocalRotation: {x: 0, y: 0, z: 0, w: 1}
  m_LocalPosition: {x: 0, y: 0, z: 0}
  m_LocalScale: {x: 1, y: 1, z: 1}
  m_Children:
  - {fileID: 1920819330}
  - {fileID: 1467839668}
  m_Father: {fileID: 0}
--- !u!114 &692085946
MonoBehaviour:
  m_ObjectHideFlags: 0
  m_PrefabParentObject: {fileID: 11400002, guid: de0c96205ce5a455aaeed907b914eae6,
    type: 2}
  m_PrefabInternal: {fileID: 258361279}
  m_GameObject: {fileID: 692085944}
  m_Enabled: 1
  m_EditorHideFlags: 0
  m_Script: {fileID: 11500000, guid: 3919a7c3207214c779d3e0aaedd59a31, type: 3}
  m_Name: 
  recentlyAddedEntities: []
  console: {fileID: 1943628680}
  scratch: {fileID: 1920819330}
  root:
    id: e_1286047384
    nodeView: {fileID: 0}
    deprecated: 0
--- !u!114 &692085947
MonoBehaviour:
  m_ObjectHideFlags: 0
  m_PrefabParentObject: {fileID: 11400008, guid: de0c96205ce5a455aaeed907b914eae6,
    type: 2}
  m_PrefabInternal: {fileID: 258361279}
  m_GameObject: {fileID: 692085944}
  m_Enabled: 1
  m_EditorHideFlags: 0
  m_Script: {fileID: 11500000, guid: c1fbfc9c3965f98468c63d4a8f0902b7, type: 3}
  m_Name: 
--- !u!114 &692085948
MonoBehaviour:
  m_ObjectHideFlags: 0
  m_PrefabParentObject: {fileID: 11400004, guid: de0c96205ce5a455aaeed907b914eae6,
    type: 2}
  m_PrefabInternal: {fileID: 258361279}
  m_GameObject: {fileID: 692085944}
  m_Enabled: 1
  m_EditorHideFlags: 0
  m_Script: {fileID: 11500000, guid: 6545e45b286bfe844838f38c40c70e1b, type: 3}
  m_Name: 
  partMask: 0
  structureMask: 0
  gameCamera: {fileID: 1148510271}
  godMode: 0
  highlight: {fileID: 2100000, guid: 9818974818dc44fef91a3830df6399d1, type: 2}
  blueHighlight: {fileID: 2100000, guid: 235dd0aa6241b7947847cbd672237eb6, type: 2}
  greenHighlight: {fileID: 2100000, guid: 9f4d5d0263af64d4ebc571be634733a2, type: 2}
  yellowHighlight: {fileID: 2100000, guid: 912c565eeba0ced43aaa52a6ab35f4e3, type: 2}
  redHighlight: {fileID: 2100000, guid: f9df0aabd4f7c2a46b1f180f6a6aeae4, type: 2}
  soundDetachAsset: {fileID: 100002, guid: 7b39e350c58c542cfba34d34a2a8cbcc, type: 2}
  soundSelectSlot: {fileID: 8300000, guid: bf2c8c26451144041a7cb9d751e76915, type: 3}
--- !u!114 &692085949
MonoBehaviour:
  m_ObjectHideFlags: 0
  m_PrefabParentObject: {fileID: 11400012, guid: de0c96205ce5a455aaeed907b914eae6,
    type: 2}
  m_PrefabInternal: {fileID: 258361279}
  m_GameObject: {fileID: 692085944}
  m_Enabled: 1
  m_EditorHideFlags: 0
  m_Script: {fileID: 11500000, guid: 2b12cadac45b34700bfcdc42facdb88e, type: 3}
  m_Name: 
--- !u!114 &692085950
MonoBehaviour:
  m_ObjectHideFlags: 0
  m_PrefabParentObject: {fileID: 11400000, guid: de0c96205ce5a455aaeed907b914eae6,
    type: 2}
  m_PrefabInternal: {fileID: 258361279}
  m_GameObject: {fileID: 692085944}
  m_Enabled: 1
  m_EditorHideFlags: 0
  m_Script: {fileID: 11500000, guid: 67ad06fb55b704775ac321ee69954645, type: 3}
  m_Name: 
--- !u!114 &692085951
MonoBehaviour:
  m_ObjectHideFlags: 0
  m_PrefabParentObject: {fileID: 11400006, guid: de0c96205ce5a455aaeed907b914eae6,
    type: 2}
  m_PrefabInternal: {fileID: 258361279}
  m_GameObject: {fileID: 692085944}
  m_Enabled: 1
  m_EditorHideFlags: 0
  m_Script: {fileID: 11500000, guid: 25b933e6948c6464daef1166bee83b4e, type: 3}
  m_Name: 
--- !u!114 &692085952
MonoBehaviour:
  m_ObjectHideFlags: 0
  m_PrefabParentObject: {fileID: 0}
  m_PrefabInternal: {fileID: 0}
  m_GameObject: {fileID: 692085944}
  m_Enabled: 1
  m_EditorHideFlags: 0
  m_Script: {fileID: 11500000, guid: 40207a3f8443d634c803a943d11dea15, type: 3}
  m_Name: 
  gameCamera: {fileID: 1148510271}
  soundFailedAsset: {fileID: 100002, guid: 7cf680508d6c54b459226d500bbe4247, type: 2}
  soundSuccessAsset: {fileID: 100002, guid: 1069dbc1f2f3d46fbb736ec9aad954c9, type: 2}
--- !u!114 &692085953
MonoBehaviour:
  m_ObjectHideFlags: 0
  m_PrefabParentObject: {fileID: 0}
  m_PrefabInternal: {fileID: 0}
  m_GameObject: {fileID: 692085944}
  m_Enabled: 1
  m_EditorHideFlags: 0
  m_Script: {fileID: 11500000, guid: a800483c852ae8d46b217cc6a91be5bf, type: 3}
  m_Name: 
  gameCamera: {fileID: 1148510271}
  soundSuccessAsset: {fileID: 100002, guid: 1069dbc1f2f3d46fbb736ec9aad954c9, type: 2}
  soundFailedAsset: {fileID: 100002, guid: 7cf680508d6c54b459226d500bbe4247, type: 2}
  soundStartMove: {fileID: 8300000, guid: 29c6b9ade32374b3593675927d356d72, type: 3}
--- !u!114 &692085954
MonoBehaviour:
  m_ObjectHideFlags: 0
  m_PrefabParentObject: {fileID: 0}
  m_PrefabInternal: {fileID: 0}
  m_GameObject: {fileID: 692085944}
  m_Enabled: 1
  m_EditorHideFlags: 0
  m_Script: {fileID: 11500000, guid: ad7b75c30fcf04437add1ac02ad7d064, type: 3}
  m_Name: 
  gameCamera: {fileID: 1148510271}
  pointer: {fileID: 1467839668}
--- !u!1 &700703923
GameObject:
  m_ObjectHideFlags: 0
  m_PrefabParentObject: {fileID: 100036, guid: 35957c42b06f5464dad63783019724fa, type: 2}
  m_PrefabInternal: {fileID: 467471607}
  serializedVersion: 4
  m_Component:
  - 4: {fileID: 700703924}
  - 33: {fileID: 700703926}
  - 23: {fileID: 700703925}
  m_Layer: 17
  m_Name: PreAlphaLabel
  m_TagString: Untagged
  m_Icon: {fileID: 0}
  m_NavMeshLayer: 0
  m_StaticEditorFlags: 0
  m_IsActive: 0
--- !u!4 &700703924
Transform:
  m_ObjectHideFlags: 0
  m_PrefabParentObject: {fileID: 400036, guid: 35957c42b06f5464dad63783019724fa, type: 2}
  m_PrefabInternal: {fileID: 467471607}
  m_GameObject: {fileID: 700703923}
  m_LocalRotation: {x: -7.45057971e-09, y: 1, z: -2.7939675e-09, w: -1.89989777e-07}
  m_LocalPosition: {x: 10.6505785, y: -8.41179562, z: 4.99990749}
  m_LocalScale: {x: 6.5, y: 6.5, z: 6.5}
  m_Children: []
  m_Father: {fileID: 1044915035}
--- !u!23 &700703925
Renderer:
  m_ObjectHideFlags: 0
  m_PrefabParentObject: {fileID: 2300022, guid: 35957c42b06f5464dad63783019724fa,
    type: 2}
  m_PrefabInternal: {fileID: 467471607}
  m_GameObject: {fileID: 700703923}
  m_Enabled: 0
  m_CastShadows: 1
  m_ReceiveShadows: 1
  m_LightmapIndex: 255
  m_LightmapTilingOffset: {x: 1, y: 1, z: 0, w: 0}
  m_Materials:
  - {fileID: 2100000, guid: 45796cbe81d4249bd8882af0c0be2d35, type: 2}
  m_SubsetIndices: 
  m_StaticBatchRoot: {fileID: 0}
  m_UseLightProbes: 0
  m_LightProbeAnchor: {fileID: 0}
  m_ScaleInLightmap: 1
--- !u!33 &700703926
MeshFilter:
  m_ObjectHideFlags: 0
  m_PrefabParentObject: {fileID: 3300012, guid: 35957c42b06f5464dad63783019724fa,
    type: 2}
  m_PrefabInternal: {fileID: 467471607}
  m_GameObject: {fileID: 700703923}
  m_Mesh: {fileID: 4300000, guid: dc2eb47b3285d40ce84933116729d7ad, type: 3}
--- !u!1 &982324082
GameObject:
  m_ObjectHideFlags: 0
  m_PrefabParentObject: {fileID: 100028, guid: 35957c42b06f5464dad63783019724fa, type: 2}
  m_PrefabInternal: {fileID: 467471607}
  serializedVersion: 4
  m_Component:
  - 4: {fileID: 982324083}
  - 33: {fileID: 982324085}
  - 23: {fileID: 982324084}
  - 114: {fileID: 982324086}
  m_Layer: 15
  m_Name: Aurora
  m_TagString: Untagged
  m_Icon: {fileID: 0}
  m_NavMeshLayer: 0
  m_StaticEditorFlags: 0
  m_IsActive: 1
--- !u!4 &982324083
Transform:
  m_ObjectHideFlags: 0
  m_PrefabParentObject: {fileID: 400028, guid: 35957c42b06f5464dad63783019724fa, type: 2}
  m_PrefabInternal: {fileID: 467471607}
  m_GameObject: {fileID: 982324082}
  m_LocalRotation: {x: .707081378, y: -.00599775463, z: .00599775463, w: .707081378}
  m_LocalPosition: {x: 0, y: 0, z: 0}
  m_LocalScale: {x: 20, y: 20, z: 20}
  m_Children: []
  m_Father: {fileID: 174865646}
--- !u!23 &982324084
Renderer:
  m_ObjectHideFlags: 0
  m_PrefabParentObject: {fileID: 2300016, guid: 35957c42b06f5464dad63783019724fa,
    type: 2}
  m_PrefabInternal: {fileID: 467471607}
  m_GameObject: {fileID: 982324082}
  m_Enabled: 1
  m_CastShadows: 0
  m_ReceiveShadows: 0
  m_LightmapIndex: 255
  m_LightmapTilingOffset: {x: 1, y: 1, z: 0, w: 0}
  m_Materials:
  - {fileID: 2100000, guid: ef719b0d30b66e441bf7c6806300cfb1, type: 2}
  m_SubsetIndices: 
  m_StaticBatchRoot: {fileID: 0}
  m_UseLightProbes: 0
  m_LightProbeAnchor: {fileID: 0}
  m_ScaleInLightmap: 1
--- !u!33 &982324085
MeshFilter:
  m_ObjectHideFlags: 0
  m_PrefabParentObject: {fileID: 3300004, guid: 35957c42b06f5464dad63783019724fa,
    type: 2}
  m_PrefabInternal: {fileID: 467471607}
  m_GameObject: {fileID: 982324082}
  m_Mesh: {fileID: 4300002, guid: d2b38b87fa3913144b0e33a3b75dbefe, type: 3}
--- !u!114 &982324086
MonoBehaviour:
  m_ObjectHideFlags: 0
  m_PrefabParentObject: {fileID: 11400030, guid: 35957c42b06f5464dad63783019724fa,
    type: 2}
  m_PrefabInternal: {fileID: 467471607}
  m_GameObject: {fileID: 982324082}
  m_Enabled: 1
  m_EditorHideFlags: 0
  m_Script: {fileID: 11500000, guid: ac5d10a0cc3464d9095d0161ef8f0856, type: 3}
  m_Name: 
  velocity: {x: 0, y: 0, z: 5}
  randomize: 1
  space: 1
--- !u!1 &1040407814
GameObject:
  m_ObjectHideFlags: 0
  m_PrefabParentObject: {fileID: 100004, guid: 35957c42b06f5464dad63783019724fa, type: 2}
  m_PrefabInternal: {fileID: 467471607}
  serializedVersion: 4
  m_Component:
  - 4: {fileID: 1040407815}
  - 33: {fileID: 1040407817}
  - 23: {fileID: 1040407816}
  - 114: {fileID: 1040407818}
  - 82: {fileID: 1040407820}
  m_Layer: 20
  m_Name: WateryEyes
  m_TagString: Untagged
  m_Icon: {fileID: 0}
  m_NavMeshLayer: 0
  m_StaticEditorFlags: 0
  m_IsActive: 0
--- !u!4 &1040407815
Transform:
  m_ObjectHideFlags: 0
  m_PrefabParentObject: {fileID: 400004, guid: 35957c42b06f5464dad63783019724fa, type: 2}
  m_PrefabInternal: {fileID: 467471607}
  m_GameObject: {fileID: 1040407814}
  m_LocalRotation: {x: -.707106888, y: 0, z: 0, w: .707106769}
  m_LocalPosition: {x: 0, y: 0, z: 3}
  m_LocalScale: {x: 1, y: 1, z: 1}
  m_Children: []
  m_Father: {fileID: 1148510266}
--- !u!23 &1040407816
Renderer:
  m_ObjectHideFlags: 0
  m_PrefabParentObject: {fileID: 2300000, guid: 35957c42b06f5464dad63783019724fa,
    type: 2}
  m_PrefabInternal: {fileID: 467471607}
  m_GameObject: {fileID: 1040407814}
  m_Enabled: 1
  m_CastShadows: 0
  m_ReceiveShadows: 0
  m_LightmapIndex: 255
  m_LightmapTilingOffset: {x: 1, y: 1, z: 0, w: 0}
  m_Materials:
  - {fileID: 2100000, guid: 943e8e48f7e2f4a85880199582dd8b92, type: 2}
  m_SubsetIndices: 
  m_StaticBatchRoot: {fileID: 0}
  m_UseLightProbes: 0
  m_LightProbeAnchor: {fileID: 0}
  m_ScaleInLightmap: 1
--- !u!33 &1040407817
MeshFilter:
  m_ObjectHideFlags: 0
  m_PrefabParentObject: {fileID: 3300000, guid: 35957c42b06f5464dad63783019724fa,
    type: 2}
  m_PrefabInternal: {fileID: 467471607}
  m_GameObject: {fileID: 1040407814}
  m_Mesh: {fileID: 10209, guid: 0000000000000000e000000000000000, type: 0}
--- !u!114 &1040407818
MonoBehaviour:
  m_ObjectHideFlags: 0
  m_PrefabParentObject: {fileID: 11400018, guid: 35957c42b06f5464dad63783019724fa,
    type: 2}
  m_PrefabInternal: {fileID: 467471607}
  m_GameObject: {fileID: 1040407814}
  m_Enabled: 1
  m_EditorHideFlags: 0
  m_Script: {fileID: 11500000, guid: ac5d10a0cc3464d9095d0161ef8f0856, type: 3}
  m_Name: 
  velocity: {x: 0, y: 10, z: 0}
  randomize: 1
  space: 0
--- !u!82 &1040407820
AudioSource:
  m_ObjectHideFlags: 0
  m_PrefabParentObject: {fileID: 8200000, guid: 35957c42b06f5464dad63783019724fa,
    type: 2}
  m_PrefabInternal: {fileID: 467471607}
  m_GameObject: {fileID: 1040407814}
  m_Enabled: 1
  serializedVersion: 3
  m_audioClip: {fileID: 8300000, guid: d12efb703b9dc465dbb34364cf23628a, type: 3}
  m_PlayOnAwake: 1
  m_Volume: 1
  m_Pitch: 1
  Loop: 1
  Mute: 0
  Priority: 128
  DopplerLevel: 1
  MinDistance: 1
  MaxDistance: 500
  Pan2D: 0
  rolloffMode: 0
  BypassEffects: 0
  rolloffCustomCurve:
    serializedVersion: 2
    m_Curve:
    - time: 0
      value: 1
      inSlope: 0
      outSlope: 0
      tangentMode: 0
    - time: 1
      value: 0
      inSlope: 0
      outSlope: 0
      tangentMode: 0
    m_PreInfinity: 2
    m_PostInfinity: 2
  panLevelCustomCurve:
    serializedVersion: 2
    m_Curve:
    - time: 0
      value: 1
      inSlope: 0
      outSlope: 0
      tangentMode: 0
    m_PreInfinity: 2
    m_PostInfinity: 2
  spreadCustomCurve:
    serializedVersion: 2
    m_Curve:
    - time: 0
      value: 0
      inSlope: 0
      outSlope: 0
      tangentMode: 0
    m_PreInfinity: 2
    m_PostInfinity: 2
--- !u!1 &1044915034
GameObject:
  m_ObjectHideFlags: 0
  m_PrefabParentObject: {fileID: 100044, guid: 35957c42b06f5464dad63783019724fa, type: 2}
  m_PrefabInternal: {fileID: 467471607}
  serializedVersion: 4
  m_Component:
  - 4: {fileID: 1044915035}
  - 20: {fileID: 1044915036}
  m_Layer: 17
  m_Name: OverlayCamera
  m_TagString: Untagged
  m_Icon: {fileID: 0}
  m_NavMeshLayer: 0
  m_StaticEditorFlags: 0
  m_IsActive: 1
--- !u!4 &1044915035
Transform:
  m_ObjectHideFlags: 0
  m_PrefabParentObject: {fileID: 400044, guid: 35957c42b06f5464dad63783019724fa, type: 2}
  m_PrefabInternal: {fileID: 467471607}
  m_GameObject: {fileID: 1044915034}
  m_LocalRotation: {x: 0, y: 0, z: 0, w: 1}
  m_LocalPosition: {x: 0, y: 0, z: 0}
  m_LocalScale: {x: 1, y: 1, z: 1}
  m_Children:
  - {fileID: 2033310884}
  - {fileID: 117871416}
  - {fileID: 85064510}
  - {fileID: 700703924}
  - {fileID: 51238635}
  m_Father: {fileID: 1148510266}
--- !u!20 &1044915036
Camera:
  m_ObjectHideFlags: 0
  m_PrefabParentObject: {fileID: 2000004, guid: 35957c42b06f5464dad63783019724fa,
    type: 2}
  m_PrefabInternal: {fileID: 467471607}
  m_GameObject: {fileID: 1044915034}
  m_Enabled: 1
  serializedVersion: 2
  m_ClearFlags: 3
  m_BackGroundColor: {r: 0, g: 0, b: 0, a: .0199999996}
  m_NormalizedViewPortRect:
    serializedVersion: 2
    x: 0
    y: 0
    width: 1
    height: 1
  near clip plane: .300000012
  far clip plane: 10
  field of view: 60
  orthographic: 1
  orthographic size: 10
  m_Depth: 2
  m_CullingMask:
    serializedVersion: 2
    m_Bits: 131072
  m_RenderingPath: -1
  m_TargetTexture: {fileID: 0}
  m_HDR: 0
--- !u!1 &1050060384
GameObject:
  m_ObjectHideFlags: 0
  m_PrefabParentObject: {fileID: 100014, guid: 35957c42b06f5464dad63783019724fa, type: 2}
  m_PrefabInternal: {fileID: 0}
  serializedVersion: 4
  m_Component:
  - 4: {fileID: 1050060385}
  - 102: {fileID: 1050060388}
  - 23: {fileID: 1050060386}
  - 65: {fileID: 1050060387}
  - 114: {fileID: 1050060389}
  m_Layer: 19
  m_Name: Link
  m_TagString: Untagged
  m_Icon: {fileID: 0}
  m_NavMeshLayer: 0
  m_StaticEditorFlags: 0
  m_IsActive: 1
--- !u!4 &1050060385
Transform:
  m_ObjectHideFlags: 0
  m_PrefabParentObject: {fileID: 400014, guid: 35957c42b06f5464dad63783019724fa, type: 2}
  m_PrefabInternal: {fileID: 0}
  m_GameObject: {fileID: 1050060384}
  m_LocalRotation: {x: 0, y: 0, z: 0, w: 1}
  m_LocalPosition: {x: 0, y: -4.3397212, z: 6}
  m_LocalScale: {x: 1, y: 1, z: 1}
  m_Children: []
  m_Father: {fileID: 2018486525}
--- !u!23 &1050060386
Renderer:
  m_ObjectHideFlags: 0
  m_PrefabParentObject: {fileID: 2300008, guid: 35957c42b06f5464dad63783019724fa,
    type: 2}
  m_PrefabInternal: {fileID: 0}
  m_GameObject: {fileID: 1050060384}
  m_Enabled: 1
  m_CastShadows: 0
  m_ReceiveShadows: 0
  m_LightmapIndex: 255
  m_LightmapTilingOffset: {x: 1, y: 1, z: 0, w: 0}
  m_Materials:
  - {fileID: 2100000, guid: 26a61faa0a7e144b9a4155dd34751031, type: 2}
  m_SubsetIndices: 
  m_StaticBatchRoot: {fileID: 0}
  m_UseLightProbes: 0
  m_LightProbeAnchor: {fileID: 0}
  m_ScaleInLightmap: 1
--- !u!65 &1050060387
BoxCollider:
  m_ObjectHideFlags: 0
  m_PrefabParentObject: {fileID: 6500000, guid: 35957c42b06f5464dad63783019724fa,
    type: 2}
  m_PrefabInternal: {fileID: 0}
  m_GameObject: {fileID: 1050060384}
  m_Material: {fileID: 0}
  m_IsTrigger: 0
  m_Enabled: 1
  serializedVersion: 2
  m_Size: {x: 10, y: 1, z: .200000003}
  m_Center: {x: 0, y: 0, z: 0}
--- !u!102 &1050060388
TextMesh:
  serializedVersion: 3
  m_ObjectHideFlags: 0
  m_PrefabParentObject: {fileID: 10200000, guid: 35957c42b06f5464dad63783019724fa,
    type: 2}
  m_PrefabInternal: {fileID: 0}
  m_GameObject: {fileID: 1050060384}
  m_Text: http://rawbots.net/quick_reference
  m_OffsetZ: 0
  m_CharacterSize: .109999999
  m_LineSpacing: 1
  m_Anchor: 4
  m_Alignment: 1
  m_TabSize: 4
  m_FontSize: 0
  m_FontStyle: 0
  m_RichText: 1
  m_Font: {fileID: 12800000, guid: ba4f4b55f5d8349f78a4a719ff8439ed, type: 3}
--- !u!114 &1050060389
MonoBehaviour:
  m_ObjectHideFlags: 0
  m_PrefabParentObject: {fileID: 0}
  m_PrefabInternal: {fileID: 0}
  m_GameObject: {fileID: 1050060384}
  m_Enabled: 1
  m_EditorHideFlags: 0
  m_Script: {fileID: 11500000, guid: 8c82d51e6ca2449ab9323f52b392bb9f, type: 3}
  m_Name: 
--- !u!1 &1069051075
GameObject:
  m_ObjectHideFlags: 0
  m_PrefabParentObject: {fileID: 100000, guid: 6ee946cd2e9d441d396722b6794670e4, type: 2}
  m_PrefabInternal: {fileID: 0}
  serializedVersion: 4
  m_Component:
  - 4: {fileID: 1069051076}
  - 114: {fileID: 1069051078}
  m_Layer: 9
  m_Name: IslandProps
  m_TagString: Untagged
  m_Icon: {fileID: 0}
  m_NavMeshLayer: 0
  m_StaticEditorFlags: 0
  m_IsActive: 1
--- !u!4 &1069051076
Transform:
  m_ObjectHideFlags: 0
  m_PrefabParentObject: {fileID: 400000, guid: 6ee946cd2e9d441d396722b6794670e4, type: 2}
  m_PrefabInternal: {fileID: 0}
  m_GameObject: {fileID: 1069051075}
  m_LocalRotation: {x: 0, y: 0, z: 0, w: 1}
  m_LocalPosition: {x: 0, y: -2000, z: 0}
  m_LocalScale: {x: 1, y: 1, z: 1}
  m_Children: []
  m_Father: {fileID: 0}
--- !u!114 &1069051078
MonoBehaviour:
  m_ObjectHideFlags: 0
  m_PrefabParentObject: {fileID: 0}
  m_PrefabInternal: {fileID: 0}
  m_GameObject: {fileID: 1069051075}
  m_Enabled: 0
  m_EditorHideFlags: 0
  m_Script: {fileID: 11500000, guid: 773b397814ff54aca957fc6ea1746339, type: 3}
  m_Name: 
  useRockyRocks: 0
  useFireRocks: 0
  useIceRocks: 0
  useRockyCraters: 0
  useFireCraters: 0
  useIceCraters: 0
  useRockyEarth: 0
  useLayerEarth: 0
  useFireEarth: 0
  useIceEarth: 0
  useToxicEarth: 0
  rockyRocks:
  - {fileID: 11400000, guid: c80153f2c6e9c4990bcf8efc9eaa041e, type: 2}
  - {fileID: 11400000, guid: 175b17583ae39481183ff95f77afb532, type: 2}
  - {fileID: 11400000, guid: 18cb05b9c548e4d63994d4a5f688182b, type: 2}
  fireRocks:
  - {fileID: 11400000, guid: 8c97d05595142b74ba4cd4610ded62b1, type: 2}
  - {fileID: 11400000, guid: 3c53a42b0f6f80b43a3720d69426b135, type: 2}
  - {fileID: 11400000, guid: c525d988dc577be4081c93238a497d0d, type: 2}
  iceRocks:
  - {fileID: 11400000, guid: 79e61c7854116c24b9f43526f2be1924, type: 2}
  - {fileID: 11400000, guid: 26f5ee6ccdc52054992cb35763709e36, type: 2}
  - {fileID: 11400000, guid: b473b2934afa17b4c8bdcf8eb3e523ad, type: 2}
  rockyCraters:
  - {fileID: 11400000, guid: 62358a80a5eb4499a97f652631519a11, type: 2}
  - {fileID: 11400000, guid: 45f0f1a657c5b48b1a70224b863dff9d, type: 2}
  fireCraters:
  - {fileID: 11400000, guid: 67f3a7781c75ffd48a1803b43dc55d76, type: 2}
  - {fileID: 11400000, guid: 579e50137136a0d42944a0cd569ee63d, type: 2}
  iceCraters:
  - {fileID: 11400000, guid: ee61a8b7d0189da46afbe957767555d6, type: 2}
  - {fileID: 11400000, guid: f44ae3f63d92ebc4d94f3ab20f79e365, type: 2}
  stalagmites:
  - {fileID: 11400000, guid: da8e14ced7ada41bfab0c23ef593f815, type: 2}
  - {fileID: 11400000, guid: 1f0b73cee41d642d991bee8c3d674169, type: 2}
  - {fileID: 11400000, guid: 7ca5f4d4834d343098563cae437d4239, type: 2}
  crystals:
  - {fileID: 11400000, guid: 6f2e49ab91a8b44be9d72c7d6a05e82c, type: 2}
  - {fileID: 11400000, guid: f7c26eb996b794a8a9ee6730435ab546, type: 2}
  - {fileID: 11400000, guid: 49154c1dfe67f4af8a99dc6c77689934, type: 2}
  - {fileID: 11400000, guid: 74d1099c2982f492a90b43b9f7024677, type: 2}
  - {fileID: 11400000, guid: 4b012d73ed8eb4055b1b7eba17a64957, type: 2}
  rockyEarth:
  - {fileID: 2100000, guid: 34a45f22314f446e0b3cd91a697fb4cb, type: 2}
  - {fileID: 2100000, guid: 2c8979eb1111b4155aafca93d9a88f1d, type: 2}
  layerEarth:
  - {fileID: 2100000, guid: 34a45f22314f446e0b3cd91a697fb4cb, type: 2}
  - {fileID: 2100000, guid: 09d96a66d632b5c409258b6a2b3e6d9c, type: 2}
  fireEarth:
  - {fileID: 2100000, guid: 468709a2f19f0b14cb65ea20260b3a4e, type: 2}
  - {fileID: 2100000, guid: 9731935eb529a774c90568526389eb99, type: 2}
  iceEarth:
  - {fileID: 2100000, guid: 37aca7a15d94c604fb74e685f674f271, type: 2}
  - {fileID: 2100000, guid: ac64451503e32bc49b161a1c2b8e2f0b, type: 2}
  toxicEarth:
  - {fileID: 2100000, guid: c7ca8b86d531dbb408711765b6d7a201, type: 2}
  - {fileID: 2100000, guid: 609bbaf4557ae7f43b4022eb38c5c190, type: 2}
--- !u!1 &1148510265
GameObject:
  m_ObjectHideFlags: 0
  m_PrefabParentObject: {fileID: 100000, guid: 35957c42b06f5464dad63783019724fa, type: 2}
  m_PrefabInternal: {fileID: 467471607}
  serializedVersion: 4
  m_Component:
  - 4: {fileID: 1148510266}
  - 20: {fileID: 1148510267}
  - 81: {fileID: 1148510268}
  - 114: {fileID: 1148510271}
  - 114: {fileID: 1148510273}
  - 114: {fileID: 1148510274}
  - 114: {fileID: 1148510276}
  - 114: {fileID: 1148510279}
  - 114: {fileID: 1148510278}
  - 54: {fileID: 1148510269}
  - 135: {fileID: 1148510281}
  - 114: {fileID: 1148510272}
  - 82: {fileID: 1148510270}
  - 114: {fileID: 1148510275}
  - 114: {fileID: 1148510280}
  m_Layer: 20
  m_Name: GameCamera
  m_TagString: MainCamera
  m_Icon: {fileID: 0}
  m_NavMeshLayer: 0
  m_StaticEditorFlags: 0
  m_IsActive: 1
--- !u!4 &1148510266
Transform:
  m_ObjectHideFlags: 0
  m_PrefabParentObject: {fileID: 400000, guid: 35957c42b06f5464dad63783019724fa, type: 2}
  m_PrefabInternal: {fileID: 467471607}
  m_GameObject: {fileID: 1148510265}
  m_LocalRotation: {x: 0, y: 0, z: 0, w: 1}
  m_LocalPosition: {x: 0, y: -1000, z: 0}
  m_LocalScale: {x: 1, y: 1, z: 1}
  m_Children:
  - {fileID: 174865646}
  - {fileID: 1044915035}
  - {fileID: 1365546845}
  - {fileID: 1040407815}
  - {fileID: 1940634917}
  m_Father: {fileID: 0}
--- !u!20 &1148510267
Camera:
  m_ObjectHideFlags: 0
  m_PrefabParentObject: {fileID: 2000000, guid: 35957c42b06f5464dad63783019724fa,
    type: 2}
  m_PrefabInternal: {fileID: 467471607}
  m_GameObject: {fileID: 1148510265}
  m_Enabled: 1
  serializedVersion: 2
  m_ClearFlags: 2
  m_BackGroundColor: {r: 0, g: 0, b: 0, a: 1}
  m_NormalizedViewPortRect:
    serializedVersion: 2
    x: 0
    y: 0
    width: 1
    height: 1
  near clip plane: 1
  far clip plane: 5000
  field of view: 70
  orthographic: 0
  orthographic size: 100
  m_Depth: -1
  m_CullingMask:
    serializedVersion: 2
    m_Bits: 254918416
  m_RenderingPath: 2
  m_TargetTexture: {fileID: 0}
  m_HDR: 1
--- !u!81 &1148510268
AudioListener:
  m_ObjectHideFlags: 0
  m_PrefabParentObject: {fileID: 8100000, guid: 35957c42b06f5464dad63783019724fa,
    type: 2}
  m_PrefabInternal: {fileID: 467471607}
  m_GameObject: {fileID: 1148510265}
  m_Enabled: 1
--- !u!54 &1148510269
Rigidbody:
  m_ObjectHideFlags: 0
  m_PrefabParentObject: {fileID: 5400000, guid: 35957c42b06f5464dad63783019724fa,
    type: 2}
  m_PrefabInternal: {fileID: 467471607}
  m_GameObject: {fileID: 1148510265}
  serializedVersion: 2
  m_Mass: 1
  m_Drag: 1
  m_AngularDrag: .0500000007
  m_UseGravity: 0
  m_IsKinematic: 0
  m_Interpolate: 0
  m_Constraints: 0
  m_CollisionDetection: 0
--- !u!82 &1148510270
AudioSource:
  m_ObjectHideFlags: 0
  m_PrefabParentObject: {fileID: 8200004, guid: 35957c42b06f5464dad63783019724fa,
    type: 2}
  m_PrefabInternal: {fileID: 467471607}
  m_GameObject: {fileID: 1148510265}
  m_Enabled: 1
  serializedVersion: 3
  m_audioClip: {fileID: 0}
  m_PlayOnAwake: 1
  m_Volume: 1
  m_Pitch: 1
  Loop: 0
  Mute: 0
  Priority: 128
  DopplerLevel: 1
  MinDistance: 1
  MaxDistance: 500
  Pan2D: 0
  rolloffMode: 0
  BypassEffects: 0
  rolloffCustomCurve:
    serializedVersion: 2
    m_Curve:
    - time: 0
      value: 1
      inSlope: 0
      outSlope: 0
      tangentMode: 0
    - time: 1
      value: 0
      inSlope: 0
      outSlope: 0
      tangentMode: 0
    m_PreInfinity: 2
    m_PostInfinity: 2
  panLevelCustomCurve:
    serializedVersion: 2
    m_Curve:
    - time: 0
      value: 1
      inSlope: 0
      outSlope: 0
      tangentMode: 0
    m_PreInfinity: 2
    m_PostInfinity: 2
  spreadCustomCurve:
    serializedVersion: 2
    m_Curve:
    - time: 0
      value: 0
      inSlope: 0
      outSlope: 0
      tangentMode: 0
    m_PreInfinity: 2
    m_PostInfinity: 2
--- !u!114 &1148510271
MonoBehaviour:
  m_ObjectHideFlags: 0
  m_PrefabParentObject: {fileID: 11400004, guid: 35957c42b06f5464dad63783019724fa,
    type: 2}
  m_PrefabInternal: {fileID: 467471607}
  m_GameObject: {fileID: 1148510265}
  m_Enabled: 1
  m_EditorHideFlags: 0
  m_Script: {fileID: 11500000, guid: e4e21789dd0e00a45a75e8fbe9078f89, type: 3}
  m_Name: 
  pickMask: 0
  physicalObject: {fileID: 1148510272}
  gridCamera: {fileID: 1940634919}
  watery: {fileID: 1040407814}
  slerp: 0
  positionPID:
    setpoint: {x: 0, y: 0, z: 0}
    kp: 50
    ki: 0
    kd: 10
  distancePID:
    setpoint: 0
    kp: 0
    ki: 0
    kd: 0
  titleScreen: {fileID: 51238638}
  bulletRigidbody: {fileID: 0}
  caustics: {fileID: 245651928}
  followPitchSpeed: 7
  followYawSpeed: 15
  followDistance: .100000001
  minFollowDistance: 15
  maxFollowDistance: 100
  targetProxyTransform: {fileID: 0}
  cameraTarget: {fileID: 0}
--- !u!114 &1148510272
MonoBehaviour:
  m_ObjectHideFlags: 0
  m_PrefabParentObject: {fileID: 11400006, guid: 35957c42b06f5464dad63783019724fa,
    type: 2}
  m_PrefabInternal: {fileID: 467471607}
  m_GameObject: {fileID: 1148510265}
  m_Enabled: 1
  m_EditorHideFlags: 0
  m_Script: {fileID: 11500000, guid: b446c51e6d3380e428ee09c6468b06f2, type: 3}
  m_Name: 
  multiplier: 0
  gravities: []
  bulletRigidbody: {fileID: 0}
--- !u!114 &1148510273
MonoBehaviour:
  m_ObjectHideFlags: 0
  m_PrefabParentObject: {fileID: 11400008, guid: 35957c42b06f5464dad63783019724fa,
    type: 2}
  m_PrefabInternal: {fileID: 467471607}
  m_GameObject: {fileID: 1148510265}
  m_Enabled: 1
  m_EditorHideFlags: 0
  m_Script: {fileID: 11500000, guid: d35a90bed98554f4d8b92c9cd3cfbafa, type: 3}
  m_Name: 
  tweakMode: 1
  screenBlendMode: 1
  hdr: 0
  sepBlurSpread: .74000001
  useSrcAlphaAsMask: 0
  bloomIntensity: 1
  bloomThreshhold: .629999995
  bloomBlurIterations: 3
  lensflares: 1
  hollywoodFlareBlurIterations: 2
  lensflareMode: 1
  hollyStretchWidth: 2.97000003
  lensflareIntensity: .170000002
  lensflareThreshhold: .529999971
  flareColorA: {r: .400000006, g: .400000006, b: .800000012, a: .75}
  flareColorB: {r: .400000006, g: .800000012, b: .800000012, a: .75}
  flareColorC: {r: .800000012, g: .400000006, b: .800000012, a: .75}
  flareColorD: {r: .800000012, g: .400000006, b: 0, a: .75}
  blurWidth: 1
  lensFlareVignetteMask: {fileID: 2800000, guid: 95ef4804fe0be4c999ddaa383536cde8,
    type: 3}
  lensFlareShader: {fileID: 4800000, guid: 459fe69d2f6d74ddb92f04dbf45a866b, type: 3}
  vignetteShader: {fileID: 4800000, guid: 562f620336e024ac99992ff05725a89a, type: 3}
  separableBlurShader: {fileID: 4800000, guid: a9df009a214e24a5ebbf271595f8d5b6, type: 3}
  addBrightStuffOneOneShader: {fileID: 4800000, guid: f7898d203e9b94c0dbe2bf9dd5cb32c0,
    type: 3}
  screenBlendShader: {fileID: 4800000, guid: 53b3960ee3d3d4a5caa8d5473d120187, type: 3}
  hollywoodFlaresShader: {fileID: 4800000, guid: e2baf3cae8edc4daf94c9adc2154be00,
    type: 3}
  brightPassFilterShader: {fileID: 4800000, guid: 186c4c0d31e314f049595dcbaf4ca129,
    type: 3}
--- !u!114 &1148510274
MonoBehaviour:
  m_ObjectHideFlags: 0
  m_PrefabParentObject: {fileID: 11400010, guid: 35957c42b06f5464dad63783019724fa,
    type: 2}
  m_PrefabInternal: {fileID: 467471607}
  m_GameObject: {fileID: 1148510265}
  m_Enabled: 1
  m_EditorHideFlags: 0
  m_Script: {fileID: 11500000, guid: 0a8e0413e0444491eaddd12550af679e, type: 3}
  m_Name: 
  intensity: -1
  softness: 14
  spread: 3
  blurShader: {fileID: 4800000, guid: e97c14fbb5ea04c3a902cc533d7fc5d1, type: 3}
  depthFetchShader: {fileID: 4800000, guid: 14768d3865b1342e3a861fbe19ba2db2, type: 3}
  creaseApplyShader: {fileID: 4800000, guid: b59984d82af624bd3b0c777f038276f2, type: 3}
--- !u!114 &1148510275
MonoBehaviour:
  m_ObjectHideFlags: 0
  m_PrefabParentObject: {fileID: 11400012, guid: 35957c42b06f5464dad63783019724fa,
    type: 2}
  m_PrefabInternal: {fileID: 467471607}
  m_GameObject: {fileID: 1148510265}
  m_Enabled: 1
  m_EditorHideFlags: 0
  m_Script: {fileID: 11500000, guid: cb4073a5d93ea4748a25dd970dc00d01, type: 3}
  m_Name: 
--- !u!114 &1148510276
MonoBehaviour:
  m_ObjectHideFlags: 0
  m_PrefabParentObject: {fileID: 11400014, guid: 35957c42b06f5464dad63783019724fa,
    type: 2}
  m_PrefabInternal: {fileID: 467471607}
  m_GameObject: {fileID: 1148510265}
  m_Enabled: 1
  m_EditorHideFlags: 0
  m_Script: {fileID: 11500000, guid: 83b39678ff6aa4fec8d135d231ba9cde, type: 3}
  m_Name: 
  redChannel:
    serializedVersion: 2
    m_Curve:
    - time: 0
      value: .00177383202
      inSlope: 2
      outSlope: 2
      tangentMode: 0
    - time: .493945479
      value: 1.07948208
      inSlope: 1.00702047
      outSlope: 1.00702047
      tangentMode: 0
    - time: 1
      value: 1.00177383
      inSlope: 0
      outSlope: 0
      tangentMode: 0
    m_PreInfinity: 2
    m_PostInfinity: 2
  greenChannel:
    serializedVersion: 2
    m_Curve:
    - time: 0
      value: .0027223439
      inSlope: 2
      outSlope: 2
      tangentMode: 0
    - time: .33920303
      value: .566099107
      inSlope: 1.32143497
      outSlope: 1.32143497
      tangentMode: 0
    - time: .497098207
      value: 1.35672855
      inSlope: 1.00135803
      outSlope: 1.00135803
      tangentMode: 0
    - time: .619553268
      value: 1.40920234
      inSlope: .668466091
      outSlope: .668466091
      tangentMode: 0
    - time: 1
      value: 1.00272238
      inSlope: 0
      outSlope: 0
      tangentMode: 0
    m_PreInfinity: 2
    m_PostInfinity: 2
  blueChannel:
    serializedVersion: 2
    m_Curve:
    - time: .000735537556
      value: .00208839867
      inSlope: 3.01948094
      outSlope: 3.01948094
      tangentMode: 0
    - time: .0390111543
      value: .0676661059
      inSlope: 1.92202628
      outSlope: 1.92202628
      tangentMode: 0
    - time: 1
      value: .991165638
      inSlope: 0
      outSlope: 0
      tangentMode: 0
    m_PreInfinity: 2
    m_PostInfinity: 2
  useDepthCorrection: 1
  zCurve:
    serializedVersion: 2
    m_Curve:
    - time: 0
      value: 0
      inSlope: 0
      outSlope: 0
      tangentMode: 0
    - time: .25
      value: 1
      inSlope: 0
      outSlope: 0
      tangentMode: 0
    - time: .75
      value: -1
      inSlope: 0
      outSlope: 0
      tangentMode: 0
    - time: 1
      value: 0
      inSlope: 0
      outSlope: 0
      tangentMode: 0
    m_PreInfinity: 2
    m_PostInfinity: 2
  depthRedChannel:
    serializedVersion: 2
    m_Curve:
    - time: 0
      value: 0
      inSlope: 1
      outSlope: 1
      tangentMode: 0
    - time: 1
      value: 1
      inSlope: 1
      outSlope: 1
      tangentMode: 0
    m_PreInfinity: 2
    m_PostInfinity: 2
  depthGreenChannel:
    serializedVersion: 2
    m_Curve:
    - time: 0
      value: 0
      inSlope: 1
      outSlope: 1
      tangentMode: 0
    - time: 1
      value: 1
      inSlope: 1
      outSlope: 1
      tangentMode: 0
    m_PreInfinity: 2
    m_PostInfinity: 2
  depthBlueChannel:
    serializedVersion: 2
    m_Curve:
    - time: 0
      value: 0
      inSlope: 1
      outSlope: 1
      tangentMode: 0
    - time: 1
      value: 1
      inSlope: 1
      outSlope: 1
      tangentMode: 0
    m_PreInfinity: 2
    m_PostInfinity: 2
  selectiveCc: 0
  selectiveFromColor: {r: 1, g: 1, b: 1, a: 1}
  selectiveToColor: {r: 1, g: 1, b: 1, a: 1}
  mode: 1
  updateTextures: 1
  colorCorrectionCurvesShader: {fileID: 4800000, guid: 62bcade1028c24ca1a39760ed84b9487,
    type: 3}
  simpleColorCorrectionCurvesShader: {fileID: 4800000, guid: 438ddd58d82c84d9eb1fdc56111702e1,
    type: 3}
  colorCorrectionSelectiveShader: {fileID: 4800000, guid: e515e0f94cefc4c0db54b45cba621544,
    type: 3}
--- !u!114 &1148510278
MonoBehaviour:
  m_ObjectHideFlags: 0
  m_PrefabParentObject: {fileID: 11400022, guid: 35957c42b06f5464dad63783019724fa,
    type: 2}
  m_PrefabInternal: {fileID: 467471607}
  m_GameObject: {fileID: 1148510265}
  m_Enabled: 0
  m_EditorHideFlags: 0
  m_Script: {fileID: 11500000, guid: a9aaa3f5f2d574f228e4a21aa38b61e4, type: 3}
  m_Name: 
  mode: 2
  showGeneratedNormals: 0
  offsetScale: .200000003
  blurRadius: 18
  edgeThresholdMin: .0500000007
  edgeThreshold: .200000003
  edgeSharpness: 4
  dlaaSharp: 0
  ssaaShader: {fileID: 4800000, guid: b3728d1488b02490cbd196c7941bf1f8, type: 3}
  dlaaShader: {fileID: 4800000, guid: 017ca72b9e8a749058d13ebd527e98fa, type: 3}
  nfaaShader: {fileID: 4800000, guid: ce0cb2621f6d84e21a87414e471a3cce, type: 3}
  shaderFXAAPreset2: {fileID: 4800000, guid: 6f1418cffd12146f2a83be795f6fa5a7, type: 3}
  shaderFXAAPreset3: {fileID: 4800000, guid: c182fa94a5a0a4c02870641efcd38cd5, type: 3}
  shaderFXAAII: {fileID: 4800000, guid: cd5b323dcc592457790ff18b528f5e67, type: 3}
  shaderFXAAIII: {fileID: 4800000, guid: c547503fff0e8482ea5793727057041c, type: 3}
--- !u!114 &1148510279
MonoBehaviour:
  m_ObjectHideFlags: 0
  m_PrefabParentObject: {fileID: 11400024, guid: 35957c42b06f5464dad63783019724fa,
    type: 2}
  m_PrefabInternal: {fileID: 467471607}
  m_GameObject: {fileID: 1148510265}
  m_Enabled: 1
  m_EditorHideFlags: 0
  m_Script: {fileID: 11500000, guid: b0923359e9e352a4b9b11c7b7161ad67, type: 3}
  m_Name: 
  m_Radius: 1
  m_SampleCount: 1
  m_OcclusionIntensity: 6
  m_Blur: 1
  m_Downsampling: 1
  m_OcclusionAttenuation: 3
  m_MinZ: .400000006
  m_SSAOShader: {fileID: 4800000, guid: 43ca18288c424f645aaa1e9e07f04c50, type: 3}
  m_RandomTexture: {fileID: 2800000, guid: a181ca8e3c62f3e4b8f183f6c586b032, type: 3}
--- !u!114 &1148510280
MonoBehaviour:
  m_ObjectHideFlags: 0
  m_PrefabParentObject: {fileID: 11400036, guid: 35957c42b06f5464dad63783019724fa,
    type: 2}
  m_PrefabInternal: {fileID: 467471607}
  m_GameObject: {fileID: 1148510265}
  m_Enabled: 0
  m_EditorHideFlags: 0
  m_Script: {fileID: 11500000, guid: e9b41ef81e8d74f3a814d061ec18b3a7, type: 3}
  m_Name: 
  blendMode: 3
  intensity: 1
  texture: {fileID: 2800000, guid: 82e39a1f7b20843fc8289405f0dadf8e, type: 3}
  overlayShader: {fileID: 4800000, guid: 8c81db0e527d24acc9bcec04e87781bd, type: 3}
--- !u!135 &1148510281
SphereCollider:
  m_ObjectHideFlags: 0
  m_PrefabParentObject: {fileID: 13500002, guid: 35957c42b06f5464dad63783019724fa,
    type: 2}
  m_PrefabInternal: {fileID: 467471607}
  m_GameObject: {fileID: 1148510265}
  m_Material: {fileID: 13400000, guid: 51433c148dee143e8b85943074797452, type: 2}
  m_IsTrigger: 0
  m_Enabled: 1
  serializedVersion: 2
  m_Radius: 2
  m_Center: {x: 0, y: 0, z: 0}
--- !u!1 &1257930144
GameObject:
  m_ObjectHideFlags: 0
  m_PrefabParentObject: {fileID: 100016, guid: 35957c42b06f5464dad63783019724fa, type: 2}
  m_PrefabInternal: {fileID: 467471607}
  serializedVersion: 4
  m_Component:
  - 4: {fileID: 1257930145}
  - 102: {fileID: 1257930147}
  - 23: {fileID: 1257930146}
  m_Layer: 30
  m_Name: LogLine
  m_TagString: Untagged
  m_Icon: {fileID: 0}
  m_NavMeshLayer: 0
  m_StaticEditorFlags: 0
  m_IsActive: 1
--- !u!4 &1257930145
Transform:
  m_ObjectHideFlags: 0
  m_PrefabParentObject: {fileID: 400016, guid: 35957c42b06f5464dad63783019724fa, type: 2}
  m_PrefabInternal: {fileID: 467471607}
  m_GameObject: {fileID: 1257930144}
  m_LocalRotation: {x: 0, y: 0, z: 0, w: 1}
  m_LocalPosition: {x: 0, y: .100000001, z: 1}
  m_LocalScale: {x: 1, y: 1, z: 1}
  m_Children:
  - {fileID: 294231053}
  m_Father: {fileID: 92704358}
--- !u!23 &1257930146
Renderer:
  m_ObjectHideFlags: 0
  m_PrefabParentObject: {fileID: 2300012, guid: 35957c42b06f5464dad63783019724fa,
    type: 2}
  m_PrefabInternal: {fileID: 467471607}
  m_GameObject: {fileID: 1257930144}
  m_Enabled: 1
  m_CastShadows: 0
  m_ReceiveShadows: 0
  m_LightmapIndex: 255
  m_LightmapTilingOffset: {x: 1, y: 1, z: 0, w: 0}
  m_Materials:
  - {fileID: 2100000, guid: ba4f4b55f5d8349f78a4a719ff8439ed, type: 3}
  m_SubsetIndices: 
  m_StaticBatchRoot: {fileID: 0}
  m_UseLightProbes: 0
  m_LightProbeAnchor: {fileID: 0}
  m_ScaleInLightmap: 1
--- !u!102 &1257930147
TextMesh:
  serializedVersion: 3
  m_ObjectHideFlags: 0
  m_PrefabParentObject: {fileID: 10200008, guid: 35957c42b06f5464dad63783019724fa,
    type: 2}
  m_PrefabInternal: {fileID: 467471607}
  m_GameObject: {fileID: 1257930144}
  m_Text: 
  m_OffsetZ: 0
  m_CharacterSize: .0399999991
  m_LineSpacing: 1
  m_Anchor: 6
  m_Alignment: 0
  m_TabSize: 4
  m_FontSize: 0
  m_FontStyle: 0
  m_RichText: 1
  m_Font: {fileID: 12800000, guid: ba4f4b55f5d8349f78a4a719ff8439ed, type: 3}
--- !u!1 &1365546844
GameObject:
  m_ObjectHideFlags: 0
  m_PrefabParentObject: {fileID: 100012, guid: 35957c42b06f5464dad63783019724fa, type: 2}
  m_PrefabInternal: {fileID: 467471607}
  serializedVersion: 4
  m_Component:
  - 4: {fileID: 1365546845}
  - 33: {fileID: 1365546847}
  - 23: {fileID: 1365546846}
  - 114: {fileID: 1365546848}
  m_Layer: 15
  m_Name: star_box
  m_TagString: Untagged
  m_Icon: {fileID: 0}
  m_NavMeshLayer: 0
  m_StaticEditorFlags: 0
  m_IsActive: 1
--- !u!4 &1365546845
Transform:
  m_ObjectHideFlags: 0
  m_PrefabParentObject: {fileID: 400012, guid: 35957c42b06f5464dad63783019724fa, type: 2}
  m_PrefabInternal: {fileID: 467471607}
  m_GameObject: {fileID: 1365546844}
  m_LocalRotation: {x: -.707106829, y: 0, z: 0, w: .707106829}
  m_LocalPosition: {x: 0, y: 0, z: 10}
  m_LocalScale: {x: 50, y: 50, z: 50}
  m_Children: []
  m_Father: {fileID: 1148510266}
--- !u!23 &1365546846
Renderer:
  m_ObjectHideFlags: 0
  m_PrefabParentObject: {fileID: 2300006, guid: 35957c42b06f5464dad63783019724fa,
    type: 2}
  m_PrefabInternal: {fileID: 467471607}
  m_GameObject: {fileID: 1365546844}
  m_Enabled: 1
  m_CastShadows: 0
  m_ReceiveShadows: 0
  m_LightmapIndex: 255
  m_LightmapTilingOffset: {x: 1, y: 1, z: 0, w: 0}
  m_Materials:
  - {fileID: 2100000, guid: 1af5e975dabf10847b45ce4f7997f850, type: 2}
  m_SubsetIndices: 
  m_StaticBatchRoot: {fileID: 0}
  m_UseLightProbes: 0
  m_LightProbeAnchor: {fileID: 0}
  m_ScaleInLightmap: 1
--- !u!33 &1365546847
MeshFilter:
  m_ObjectHideFlags: 0
  m_PrefabParentObject: {fileID: 3300006, guid: 35957c42b06f5464dad63783019724fa,
    type: 2}
  m_PrefabInternal: {fileID: 467471607}
  m_GameObject: {fileID: 1365546844}
  m_Mesh: {fileID: 4300014, guid: d2b38b87fa3913144b0e33a3b75dbefe, type: 3}
--- !u!114 &1365546848
MonoBehaviour:
  m_ObjectHideFlags: 0
  m_PrefabParentObject: {fileID: 11400016, guid: 35957c42b06f5464dad63783019724fa,
    type: 2}
  m_PrefabInternal: {fileID: 467471607}
  m_GameObject: {fileID: 1365546844}
  m_Enabled: 1
  m_EditorHideFlags: 0
  m_Script: {fileID: 11500000, guid: d05b996e3bb904278a7ea4fa2548250d, type: 3}
  m_Name: 
--- !u!1 &1430760919
GameObject:
  m_ObjectHideFlags: 0
  m_PrefabParentObject: {fileID: 100038, guid: 35957c42b06f5464dad63783019724fa, type: 2}
  m_PrefabInternal: {fileID: 467471607}
  serializedVersion: 4
  m_Component:
  - 4: {fileID: 1430760920}
  - 33: {fileID: 1430760922}
  - 23: {fileID: 1430760921}
  m_Layer: 17
  m_Name: Plane_001
  m_TagString: Untagged
  m_Icon: {fileID: 0}
  m_NavMeshLayer: 0
  m_StaticEditorFlags: 0
  m_IsActive: 1
--- !u!4 &1430760920
Transform:
  m_ObjectHideFlags: 0
  m_PrefabParentObject: {fileID: 400038, guid: 35957c42b06f5464dad63783019724fa, type: 2}
  m_PrefabInternal: {fileID: 467471607}
  m_GameObject: {fileID: 1430760919}
  m_LocalRotation: {x: -.707106829, y: 0, z: 0, w: .707106829}
  m_LocalPosition: {x: -.00752252573, y: -5.42566061, z: -.01423408}
  m_LocalScale: {x: 1, y: 1, z: 1}
  m_Children: []
  m_Father: {fileID: 117871416}
--- !u!23 &1430760921
Renderer:
  m_ObjectHideFlags: 0
  m_PrefabParentObject: {fileID: 2300024, guid: 35957c42b06f5464dad63783019724fa,
    type: 2}
  m_PrefabInternal: {fileID: 467471607}
  m_GameObject: {fileID: 1430760919}
  m_Enabled: 0
  m_CastShadows: 0
  m_ReceiveShadows: 0
  m_LightmapIndex: 255
  m_LightmapTilingOffset: {x: 1, y: 1, z: 0, w: 0}
  m_Materials:
  - {fileID: 2100000, guid: e31d1ba67fbb28546bb72a50f6f88137, type: 2}
  m_SubsetIndices: 
  m_StaticBatchRoot: {fileID: 0}
  m_UseLightProbes: 0
  m_LightProbeAnchor: {fileID: 0}
  m_ScaleInLightmap: 1
--- !u!33 &1430760922
MeshFilter:
  m_ObjectHideFlags: 0
  m_PrefabParentObject: {fileID: 3300014, guid: 35957c42b06f5464dad63783019724fa,
    type: 2}
  m_PrefabInternal: {fileID: 467471607}
  m_GameObject: {fileID: 1430760919}
  m_Mesh: {fileID: 4300000, guid: 47a0691f30a8ed048a99d723303520dd, type: 3}
--- !u!1 &1467839667
GameObject:
  m_ObjectHideFlags: 0
  m_PrefabParentObject: {fileID: 100000, guid: 56bdb477235054d37bd5538722356c48, type: 2}
  m_PrefabInternal: {fileID: 272214143}
  serializedVersion: 4
  m_Component:
  - 4: {fileID: 1467839668}
  m_Layer: 0
  m_Name: SpawnPointer
  m_TagString: Untagged
  m_Icon: {fileID: 0}
  m_NavMeshLayer: 0
  m_StaticEditorFlags: 0
  m_IsActive: 1
--- !u!4 &1467839668
Transform:
  m_ObjectHideFlags: 0
  m_PrefabParentObject: {fileID: 400000, guid: 56bdb477235054d37bd5538722356c48, type: 2}
  m_PrefabInternal: {fileID: 272214143}
  m_GameObject: {fileID: 1467839667}
  m_LocalRotation: {x: 0, y: 0, z: 0, w: 1}
  m_LocalPosition: {x: 0, y: 0, z: 0}
  m_LocalScale: {x: 1, y: 1, z: 1}
  m_Children:
  - {fileID: 1630408574}
  m_Father: {fileID: 692085945}
--- !u!1 &1471192324
GameObject:
  m_ObjectHideFlags: 0
  m_PrefabParentObject: {fileID: 100018, guid: 35957c42b06f5464dad63783019724fa, type: 2}
  m_PrefabInternal: {fileID: 467471607}
  serializedVersion: 4
  m_Component:
  - 4: {fileID: 1471192325}
  - 102: {fileID: 1471192327}
  - 23: {fileID: 1471192326}
  m_Layer: 30
  m_Name: InputLine
  m_TagString: Untagged
  m_Icon: {fileID: 0}
  m_NavMeshLayer: 0
  m_StaticEditorFlags: 0
  m_IsActive: 1
--- !u!4 &1471192325
Transform:
  m_ObjectHideFlags: 0
  m_PrefabParentObject: {fileID: 400018, guid: 35957c42b06f5464dad63783019724fa, type: 2}
  m_PrefabInternal: {fileID: 467471607}
  m_GameObject: {fileID: 1471192324}
  m_LocalRotation: {x: 0, y: 0, z: 0, w: 1}
  m_LocalPosition: {x: 0, y: -.0799999982, z: 1}
  m_LocalScale: {x: 1, y: 1, z: 1}
  m_Children:
  - {fileID: 59726051}
  m_Father: {fileID: 92704358}
--- !u!23 &1471192326
Renderer:
  m_ObjectHideFlags: 0
  m_PrefabParentObject: {fileID: 2300014, guid: 35957c42b06f5464dad63783019724fa,
    type: 2}
  m_PrefabInternal: {fileID: 467471607}
  m_GameObject: {fileID: 1471192324}
  m_Enabled: 1
  m_CastShadows: 0
  m_ReceiveShadows: 0
  m_LightmapIndex: 255
  m_LightmapTilingOffset: {x: 1, y: 1, z: 0, w: 0}
  m_Materials:
  - {fileID: 2100000, guid: ba4f4b55f5d8349f78a4a719ff8439ed, type: 3}
  m_SubsetIndices: 
  m_StaticBatchRoot: {fileID: 0}
  m_UseLightProbes: 0
  m_LightProbeAnchor: {fileID: 0}
  m_ScaleInLightmap: 1
--- !u!102 &1471192327
TextMesh:
  serializedVersion: 3
  m_ObjectHideFlags: 0
  m_PrefabParentObject: {fileID: 10200010, guid: 35957c42b06f5464dad63783019724fa,
    type: 2}
  m_PrefabInternal: {fileID: 467471607}
  m_GameObject: {fileID: 1471192324}
  m_Text: 
  m_OffsetZ: 0
  m_CharacterSize: .0399999991
  m_LineSpacing: 1
  m_Anchor: 6
  m_Alignment: 0
  m_TabSize: 4
  m_FontSize: 0
  m_FontStyle: 0
  m_RichText: 1
  m_Font: {fileID: 12800000, guid: ba4f4b55f5d8349f78a4a719ff8439ed, type: 3}
--- !u!1 &1630004979
GameObject:
  m_ObjectHideFlags: 0
  m_PrefabParentObject: {fileID: 100040, guid: 35957c42b06f5464dad63783019724fa, type: 2}
  m_PrefabInternal: {fileID: 467471607}
  serializedVersion: 4
  m_Component:
  - 4: {fileID: 1630004980}
  - 33: {fileID: 1630004982}
  - 23: {fileID: 1630004981}
  m_Layer: 17
  m_Name: Plane
  m_TagString: Untagged
  m_Icon: {fileID: 0}
  m_NavMeshLayer: 0
  m_StaticEditorFlags: 0
  m_IsActive: 1
--- !u!4 &1630004980
Transform:
  m_ObjectHideFlags: 0
  m_PrefabParentObject: {fileID: 400040, guid: 35957c42b06f5464dad63783019724fa, type: 2}
  m_PrefabInternal: {fileID: 467471607}
  m_GameObject: {fileID: 1630004979}
  m_LocalRotation: {x: -.707106829, y: 0, z: 0, w: .707106829}
  m_LocalPosition: {x: .0299999993, y: 0, z: 0}
  m_LocalScale: {x: 1.91999996, y: 1.91999996, z: 1.91999996}
  m_Children: []
  m_Father: {fileID: 117871416}
--- !u!23 &1630004981
Renderer:
  m_ObjectHideFlags: 0
  m_PrefabParentObject: {fileID: 2300026, guid: 35957c42b06f5464dad63783019724fa,
    type: 2}
  m_PrefabInternal: {fileID: 467471607}
  m_GameObject: {fileID: 1630004979}
  m_Enabled: 1
  m_CastShadows: 1
  m_ReceiveShadows: 1
  m_LightmapIndex: 255
  m_LightmapTilingOffset: {x: 1, y: 1, z: 0, w: 0}
  m_Materials:
  - {fileID: 2100000, guid: d9a058b9d4a527149967f134617ad28f, type: 2}
  m_SubsetIndices: 
  m_StaticBatchRoot: {fileID: 0}
  m_UseLightProbes: 0
  m_LightProbeAnchor: {fileID: 0}
  m_ScaleInLightmap: 1
--- !u!33 &1630004982
MeshFilter:
  m_ObjectHideFlags: 0
  m_PrefabParentObject: {fileID: 3300016, guid: 35957c42b06f5464dad63783019724fa,
    type: 2}
  m_PrefabInternal: {fileID: 467471607}
  m_GameObject: {fileID: 1630004979}
  m_Mesh: {fileID: 4300002, guid: 47a0691f30a8ed048a99d723303520dd, type: 3}
--- !u!1 &1630408573
GameObject:
  m_ObjectHideFlags: 0
  m_PrefabParentObject: {fileID: 100002, guid: 56bdb477235054d37bd5538722356c48, type: 2}
  m_PrefabInternal: {fileID: 272214143}
  serializedVersion: 4
  m_Component:
  - 4: {fileID: 1630408574}
  - 33: {fileID: 1630408576}
  - 23: {fileID: 1630408575}
  m_Layer: 8
  m_Name: axis
  m_TagString: Untagged
  m_Icon: {fileID: 0}
  m_NavMeshLayer: 0
  m_StaticEditorFlags: 0
  m_IsActive: 1
--- !u!4 &1630408574
Transform:
  m_ObjectHideFlags: 0
  m_PrefabParentObject: {fileID: 400002, guid: 56bdb477235054d37bd5538722356c48, type: 2}
  m_PrefabInternal: {fileID: 272214143}
  m_GameObject: {fileID: 1630408573}
  m_LocalRotation: {x: 0, y: 0, z: .707106829, w: .707106709}
  m_LocalPosition: {x: -3.57627869e-07, y: 3.12386346, z: 0}
  m_LocalScale: {x: 1, y: 1, z: 1}
  m_Children: []
  m_Father: {fileID: 1467839668}
--- !u!23 &1630408575
Renderer:
  m_ObjectHideFlags: 0
  m_PrefabParentObject: {fileID: 2300000, guid: 56bdb477235054d37bd5538722356c48,
    type: 2}
  m_PrefabInternal: {fileID: 272214143}
  m_GameObject: {fileID: 1630408573}
  m_Enabled: 1
  m_CastShadows: 1
  m_ReceiveShadows: 1
  m_LightmapIndex: 255
  m_LightmapTilingOffset: {x: 1, y: 1, z: 0, w: 0}
  m_Materials:
  - {fileID: 2100000, guid: 6676e9e8075f44d64bd4a8af19825c40, type: 2}
  m_SubsetIndices: 
  m_StaticBatchRoot: {fileID: 0}
  m_UseLightProbes: 0
  m_LightProbeAnchor: {fileID: 0}
  m_ScaleInLightmap: 1
--- !u!33 &1630408576
MeshFilter:
  m_ObjectHideFlags: 0
  m_PrefabParentObject: {fileID: 3300000, guid: 56bdb477235054d37bd5538722356c48,
    type: 2}
  m_PrefabInternal: {fileID: 272214143}
  m_GameObject: {fileID: 1630408573}
  m_Mesh: {fileID: 4300002, guid: bdf84c5f851484da393ce903759341c3, type: 3}
--- !u!1 &1650881847
GameObject:
  m_ObjectHideFlags: 0
  m_PrefabParentObject: {fileID: 0}
  m_PrefabInternal: {fileID: 0}
  serializedVersion: 4
  m_Component:
  - 4: {fileID: 1650881848}
  - 108: {fileID: 1650881849}
  m_Layer: 0
  m_Name: AmbientLight
  m_TagString: Untagged
  m_Icon: {fileID: 0}
  m_NavMeshLayer: 0
  m_StaticEditorFlags: 0
  m_IsActive: 1
--- !u!4 &1650881848
Transform:
  m_ObjectHideFlags: 0
  m_PrefabParentObject: {fileID: 0}
  m_PrefabInternal: {fileID: 0}
  m_GameObject: {fileID: 1650881847}
  m_LocalRotation: {x: 0, y: 0, z: 0, w: 1}
  m_LocalPosition: {x: 0, y: 0, z: 0}
  m_LocalScale: {x: 1, y: 1, z: 1}
  m_Children: []
  m_Father: {fileID: 1810635131}
--- !u!108 &1650881849
Light:
  m_ObjectHideFlags: 0
  m_PrefabParentObject: {fileID: 0}
  m_PrefabInternal: {fileID: 0}
  m_GameObject: {fileID: 1650881847}
  m_Enabled: 1
  serializedVersion: 3
  m_Type: 1
  m_Color: {r: 0, g: .228728846, b: .453600615, a: 1}
  m_Intensity: .300000012
  m_Range: 10
  m_SpotAngle: 30
  m_CookieSize: 10
  m_Shadows:
    m_Type: 0
    m_Resolution: -1
    m_Strength: 1
    m_Bias: .5
    m_Softness: 4
    m_SoftnessFade: 1
  m_Cookie: {fileID: 0}
  m_DrawHalo: 0
  m_ActuallyLightmapped: 0
  m_Flare: {fileID: 0}
  m_RenderMode: 0
  m_CullingMask:
    serializedVersion: 2
    m_Bits: 4294967295
  m_Lightmapping: 1
  m_ShadowSamples: 1
  m_ShadowRadius: 0
  m_ShadowAngle: 0
  m_IndirectIntensity: 1
  m_AreaSize: {x: 1, y: 1}
--- !u!1 &1810635130
GameObject:
  m_ObjectHideFlags: 0
  m_PrefabParentObject: {fileID: 0}
  m_PrefabInternal: {fileID: 0}
  serializedVersion: 4
  m_Component:
  - 4: {fileID: 1810635131}
  - 114: {fileID: 1810635132}
  m_Layer: 0
  m_Name: DayCycle
  m_TagString: Untagged
  m_Icon: {fileID: 0}
  m_NavMeshLayer: 0
  m_StaticEditorFlags: 0
  m_IsActive: 1
--- !u!4 &1810635131
Transform:
  m_ObjectHideFlags: 0
  m_PrefabParentObject: {fileID: 0}
  m_PrefabInternal: {fileID: 0}
  m_GameObject: {fileID: 1810635130}
  m_LocalRotation: {x: 0, y: 0, z: 0, w: 1}
  m_LocalPosition: {x: 0, y: 0, z: 0}
  m_LocalScale: {x: 1, y: 1, z: 1}
  m_Children:
  - {fileID: 1650881848}
  - {fileID: 617643144}
  m_Father: {fileID: 0}
--- !u!114 &1810635132
MonoBehaviour:
  m_ObjectHideFlags: 0
  m_PrefabParentObject: {fileID: 0}
  m_PrefabInternal: {fileID: 0}
  m_GameObject: {fileID: 1810635130}
  m_Enabled: 1
  m_EditorHideFlags: 0
  m_Script: {fileID: 11500000, guid: 28260fc8292544d5fa8114d79cfed8d6, type: 3}
  m_Name: 
  cycles:
  - name: morning
    duration: 100
    directColor: {r: 1, g: .497953057, b: .389664173, a: 1}
    directIntensity: 1
    ambientColor: {r: 1, g: .916609585, b: .835480452, a: 1}
    fogColor: {r: 0, g: 0, b: 0, a: 1}
    auroraColor: {r: .233137548, g: .376647681, b: .517737567, a: .310000002}
  - name: blank morning
    duration: 100
    directColor: {r: 1, g: .879976451, b: .763342977, a: 1}
    directIntensity: 1
    ambientColor: {r: 1, g: .856271744, b: .657828331, a: 1}
    fogColor: {r: 0, g: 0, b: 0, a: 1}
    auroraColor: {r: .125944301, g: .299411356, b: .41551739, a: .310000002}
  - name: noon
    duration: 100
    directColor: {r: .948315799, g: 1, b: .884502411, a: 1}
    directIntensity: 1
    ambientColor: {r: 1, g: .913637757, b: .807929873, a: 1}
    fogColor: {r: 0, g: 0, b: 0, a: 1}
    auroraColor: {r: 0, g: .310006469, b: .520547628, a: .310000002}
  - name: blank noon
    duration: 100
    directColor: {r: 1, g: .818578839, b: .76104331, a: 1}
    directIntensity: .430000007
    ambientColor: {r: 1, g: .843137264, b: .811764717, a: 1}
    fogColor: {r: 0, g: 0, b: 0, a: 1}
    auroraColor: {r: 0, g: .312729239, b: .451430976, a: .310000002}
  - name: twilight
    duration: 100
    directColor: {r: 1, g: .271923751, b: .214303493, a: 1}
    directIntensity: .349999994
    ambientColor: {r: .250980407, g: .250980407, b: .250980407, a: 1}
    fogColor: {r: 0, g: 0, b: 0, a: 1}
    auroraColor: {r: .10353414, g: .12448781, b: .213588178, a: .310000002}
  - name: night
    duration: 100
    directColor: {r: 0, g: .16370903, b: .324657202, a: 1}
    directIntensity: .300000012
    ambientColor: {r: 0, g: 0, b: 0, a: .75}
    fogColor: {r: 0, g: 0, b: 0, a: 1}
    auroraColor: {r: .0843883008, g: .155075878, b: .251733899, a: .310000002}
  - name: blank night
    duration: 100
    directColor: {r: 0, g: .286445558, b: .568060398, a: 1}
    directIntensity: .300000012
    ambientColor: {r: .154655635, g: .154655635, b: .154655635, a: 1}
    fogColor: {r: 0, g: 0, b: 0, a: 1}
    auroraColor: {r: .0868997574, g: .155413434, b: .230030298, a: .310000002}
  globalTime: 0
  directLight: {fileID: 617643145}
  aurora: {fileID: 982324084}
  timeScale: .200000003
  directColor: {r: 0, g: 0, b: 0, a: 0}
  directIntensity: 0
  ambientColor: {r: 0, g: 0, b: 0, a: 0}
  fogColor: {r: 0, g: 0, b: 0, a: 0}
  auroraColor: {r: 0, g: 0, b: 0, a: 0}
  status: 
--- !u!1 &1828677170
GameObject:
  m_ObjectHideFlags: 0
  m_PrefabParentObject: {fileID: 0}
  m_PrefabInternal: {fileID: 0}
  serializedVersion: 4
  m_Component:
  - 4: {fileID: 1828677171}
  - 33: {fileID: 1828677173}
  - 23: {fileID: 1828677172}
  m_Layer: 19
  m_Name: Card
  m_TagString: Untagged
  m_Icon: {fileID: 0}
  m_NavMeshLayer: 0
  m_StaticEditorFlags: 0
  m_IsActive: 1
--- !u!4 &1828677171
Transform:
  m_ObjectHideFlags: 0
  m_PrefabParentObject: {fileID: 0}
  m_PrefabInternal: {fileID: 0}
  m_GameObject: {fileID: 1828677170}
  m_LocalRotation: {x: -1.15202333e-07, y: .707106769, z: -.707106888, w: -1.15202319e-07}
  m_LocalPosition: {x: -1.49780091e-14, y: .351327866, z: 8}
  m_LocalScale: {x: 2, y: 2, z: 2}
  m_Children: []
  m_Father: {fileID: 2018486525}
--- !u!23 &1828677172
Renderer:
  m_ObjectHideFlags: 0
  m_PrefabParentObject: {fileID: 0}
  m_PrefabInternal: {fileID: 0}
  m_GameObject: {fileID: 1828677170}
  m_Enabled: 1
  m_CastShadows: 0
  m_ReceiveShadows: 0
  m_LightmapIndex: 255
  m_LightmapTilingOffset: {x: 1, y: 1, z: 0, w: 0}
  m_Materials:
  - {fileID: 2100000, guid: 0986535c0dbf245c2866eb1dc2425be4, type: 2}
  m_SubsetIndices: 
  m_StaticBatchRoot: {fileID: 0}
  m_UseLightProbes: 0
  m_LightProbeAnchor: {fileID: 0}
  m_ScaleInLightmap: 1
--- !u!33 &1828677173
MeshFilter:
  m_ObjectHideFlags: 0
  m_PrefabParentObject: {fileID: 0}
  m_PrefabInternal: {fileID: 0}
  m_GameObject: {fileID: 1828677170}
  m_Mesh: {fileID: 10209, guid: 0000000000000000e000000000000000, type: 0}
--- !u!1 &1920819329
GameObject:
  m_ObjectHideFlags: 0
  m_PrefabParentObject: {fileID: 100002, guid: de0c96205ce5a455aaeed907b914eae6, type: 2}
  m_PrefabInternal: {fileID: 258361279}
  serializedVersion: 4
  m_Component:
  - 4: {fileID: 1920819330}
  m_Layer: 0
  m_Name: Scratch
  m_TagString: Untagged
  m_Icon: {fileID: 0}
  m_NavMeshLayer: 0
  m_StaticEditorFlags: 0
  m_IsActive: 1
--- !u!4 &1920819330
Transform:
  m_ObjectHideFlags: 0
  m_PrefabParentObject: {fileID: 400002, guid: de0c96205ce5a455aaeed907b914eae6, type: 2}
  m_PrefabInternal: {fileID: 258361279}
  m_GameObject: {fileID: 1920819329}
  m_LocalRotation: {x: 0, y: 0, z: 0, w: 1}
  m_LocalPosition: {x: 0, y: 0, z: 0}
  m_LocalScale: {x: 1, y: 1, z: 1}
  m_Children: []
  m_Father: {fileID: 692085945}
--- !u!1 &1940634916
GameObject:
  m_ObjectHideFlags: 0
  m_PrefabParentObject: {fileID: 100008, guid: 35957c42b06f5464dad63783019724fa, type: 2}
  m_PrefabInternal: {fileID: 467471607}
  serializedVersion: 4
  m_Component:
  - 4: {fileID: 1940634917}
  - 20: {fileID: 1940634918}
  - 114: {fileID: 1940634919}
  m_Layer: 31
  m_Name: GridCamera
  m_TagString: Untagged
  m_Icon: {fileID: 0}
  m_NavMeshLayer: 0
  m_StaticEditorFlags: 0
  m_IsActive: 1
--- !u!4 &1940634917
Transform:
  m_ObjectHideFlags: 0
  m_PrefabParentObject: {fileID: 400008, guid: 35957c42b06f5464dad63783019724fa, type: 2}
  m_PrefabInternal: {fileID: 467471607}
  m_GameObject: {fileID: 1940634916}
  m_LocalRotation: {x: 0, y: 0, z: 0, w: 1}
  m_LocalPosition: {x: 0, y: 0, z: 0}
  m_LocalScale: {x: 1, y: 1, z: 1}
  m_Children:
  - {fileID: 1943628679}
  m_Father: {fileID: 1148510266}
--- !u!20 &1940634918
Camera:
  m_ObjectHideFlags: 0
  m_PrefabParentObject: {fileID: 2000002, guid: 35957c42b06f5464dad63783019724fa,
    type: 2}
  m_PrefabInternal: {fileID: 467471607}
  m_GameObject: {fileID: 1940634916}
  m_Enabled: 1
  serializedVersion: 2
  m_ClearFlags: 3
  m_BackGroundColor: {r: .192156866, g: .301960796, b: .474509805, a: .0196078438}
  m_NormalizedViewPortRect:
    serializedVersion: 2
    x: 0
    y: 0
    width: 1
    height: 1
  near clip plane: .300000012
  far clip plane: 100
  field of view: 60
  orthographic: 1
  orthographic size: 10
  m_Depth: 10
  m_CullingMask:
    serializedVersion: 2
    m_Bits: 2147483648
  m_RenderingPath: 1
  m_TargetTexture: {fileID: 0}
  m_HDR: 0
--- !u!114 &1940634919
MonoBehaviour:
  m_ObjectHideFlags: 0
  m_PrefabParentObject: {fileID: 11400000, guid: 35957c42b06f5464dad63783019724fa,
    type: 2}
  m_PrefabInternal: {fileID: 467471607}
  m_GameObject: {fileID: 1940634916}
  m_Enabled: 1
  m_EditorHideFlags: 0
  m_Script: {fileID: 11500000, guid: c30379797bc254886b9cacf28fa84333, type: 3}
  m_Name: 
  gridPID:
    setpoint: {x: 0, y: 0, z: 0}
    kp: 5
    ki: 0
    kd: 0
  pickMask:
    serializedVersion: 2
    m_Bits: 2147484160
  gameCamera: {fileID: 1148510271}
  console: {fileID: 1943628680}
  grid: {fileID: 0}
  gridPosition: {x: 0, y: 0, z: 16}
  tileAsset: {fileID: 100000, guid: 99b593d76b59545998da002001e0f89c, type: 2}
  activeGrid: 0
--- !u!1 &1943628678
GameObject:
  m_ObjectHideFlags: 0
  m_PrefabParentObject: {fileID: 100020, guid: 35957c42b06f5464dad63783019724fa, type: 2}
  m_PrefabInternal: {fileID: 467471607}
  serializedVersion: 4
  m_Component:
  - 4: {fileID: 1943628679}
  - 114: {fileID: 1943628680}
  - 20: {fileID: 1943628681}
  - 114: {fileID: 1943628682}
  m_Layer: 30
  m_Name: Console
  m_TagString: Untagged
  m_Icon: {fileID: 0}
  m_NavMeshLayer: 0
  m_StaticEditorFlags: 0
  m_IsActive: 1
--- !u!4 &1943628679
Transform:
  m_ObjectHideFlags: 0
  m_PrefabParentObject: {fileID: 400020, guid: 35957c42b06f5464dad63783019724fa, type: 2}
  m_PrefabInternal: {fileID: 467471607}
  m_GameObject: {fileID: 1943628678}
  m_LocalRotation: {x: 0, y: 0, z: 0, w: 1}
  m_LocalPosition: {x: -5, y: -3, z: 1}
  m_LocalScale: {x: 5, y: 5, z: 5}
  m_Children:
  - {fileID: 178429954}
  - {fileID: 92704358}
  m_Father: {fileID: 1940634917}
--- !u!114 &1943628680
MonoBehaviour:
  m_ObjectHideFlags: 0
  m_PrefabParentObject: {fileID: 11400002, guid: 35957c42b06f5464dad63783019724fa,
    type: 2}
  m_PrefabInternal: {fileID: 467471607}
  m_GameObject: {fileID: 1943628678}
  m_Enabled: 1
  m_EditorHideFlags: 0
  m_Script: {fileID: 11500000, guid: f856fc32cba6348f4b2c730c7205af75, type: 3}
  m_Name: 
  gameCamera: {fileID: 1148510271}
  textMesh: {fileID: 1471192327}
  contextMesh: {fileID: 59726053}
  aidTextMesh: {fileID: 1944351030}
  logObj: {fileID: 1257930144}
--- !u!20 &1943628681
Camera:
  m_ObjectHideFlags: 0
  m_PrefabParentObject: {fileID: 2000006, guid: 35957c42b06f5464dad63783019724fa,
    type: 2}
  m_PrefabInternal: {fileID: 467471607}
  m_GameObject: {fileID: 1943628678}
  m_Enabled: 0
  serializedVersion: 2
  m_ClearFlags: 3
  m_BackGroundColor: {r: .192156866, g: .301960796, b: .474509805, a: .0196078438}
  m_NormalizedViewPortRect:
    serializedVersion: 2
    x: .00999999978
    y: 0
    width: .980000019
    height: .400000006
  near clip plane: .300000012
  far clip plane: 10
  field of view: 60
  orthographic: 1
  orthographic size: 3
  m_Depth: 0
  m_CullingMask:
    serializedVersion: 2
    m_Bits: 1073741824
  m_RenderingPath: -1
  m_TargetTexture: {fileID: 0}
  m_HDR: 0
--- !u!114 &1943628682
MonoBehaviour:
  m_ObjectHideFlags: 0
  m_PrefabParentObject: {fileID: 11400032, guid: 35957c42b06f5464dad63783019724fa,
    type: 2}
  m_PrefabInternal: {fileID: 467471607}
  m_GameObject: {fileID: 1943628678}
  m_Enabled: 1
  m_EditorHideFlags: 0
  m_Script: {fileID: 11500000, guid: 244eedec6891749c095a1840d77ab116, type: 3}
  m_Name: 
  adjustX: 1
  adjustY: 0
  adjustWidth: 1
  adjustHeight: 1
--- !u!1 &1944351027
GameObject:
  m_ObjectHideFlags: 0
  m_PrefabParentObject: {fileID: 100010, guid: 35957c42b06f5464dad63783019724fa, type: 2}
  m_PrefabInternal: {fileID: 467471607}
  serializedVersion: 4
  m_Component:
  - 4: {fileID: 1944351028}
  - 102: {fileID: 1944351030}
  - 23: {fileID: 1944351029}
  m_Layer: 30
  m_Name: AidLine
  m_TagString: Untagged
  m_Icon: {fileID: 0}
  m_NavMeshLayer: 0
  m_StaticEditorFlags: 0
  m_IsActive: 1
--- !u!4 &1944351028
Transform:
  m_ObjectHideFlags: 0
  m_PrefabParentObject: {fileID: 400010, guid: 35957c42b06f5464dad63783019724fa, type: 2}
  m_PrefabInternal: {fileID: 467471607}
  m_GameObject: {fileID: 1944351027}
  m_LocalRotation: {x: 0, y: 0, z: 0, w: 1}
  m_LocalPosition: {x: 0, y: -.0799999982, z: 1}
  m_LocalScale: {x: 1, y: 1, z: 1}
  m_Children: []
  m_Father: {fileID: 92704358}
--- !u!23 &1944351029
Renderer:
  m_ObjectHideFlags: 0
  m_PrefabParentObject: {fileID: 2300010, guid: 35957c42b06f5464dad63783019724fa,
    type: 2}
  m_PrefabInternal: {fileID: 467471607}
  m_GameObject: {fileID: 1944351027}
  m_Enabled: 1
  m_CastShadows: 0
  m_ReceiveShadows: 0
  m_LightmapIndex: 255
  m_LightmapTilingOffset: {x: 1, y: 1, z: 0, w: 0}
  m_Materials:
  - {fileID: 2100000, guid: ba4f4b55f5d8349f78a4a719ff8439ed, type: 3}
  m_SubsetIndices: 
  m_StaticBatchRoot: {fileID: 0}
  m_UseLightProbes: 0
  m_LightProbeAnchor: {fileID: 0}
  m_ScaleInLightmap: 1
--- !u!102 &1944351030
TextMesh:
  serializedVersion: 3
  m_ObjectHideFlags: 0
  m_PrefabParentObject: {fileID: 10200006, guid: 35957c42b06f5464dad63783019724fa,
    type: 2}
  m_PrefabInternal: {fileID: 467471607}
  m_GameObject: {fileID: 1944351027}
  m_Text: 
  m_OffsetZ: 0
  m_CharacterSize: .0399999991
  m_LineSpacing: 1
  m_Anchor: 6
  m_Alignment: 0
  m_TabSize: 4
  m_FontSize: 0
  m_FontStyle: 0
  m_RichText: 1
  m_Font: {fileID: 12800000, guid: ba4f4b55f5d8349f78a4a719ff8439ed, type: 3}
--- !u!1 &2018486524
GameObject:
  m_ObjectHideFlags: 0
  m_PrefabParentObject: {fileID: 0}
  m_PrefabInternal: {fileID: 0}
  serializedVersion: 4
  m_Component:
  - 4: {fileID: 2018486525}
  - 20: {fileID: 2018486526}
  - 114: {fileID: 2018486527}
  - 114: {fileID: 2018486528}
  m_Layer: 19
  m_Name: QuickHelp
  m_TagString: Untagged
  m_Icon: {fileID: 0}
  m_NavMeshLayer: 0
  m_StaticEditorFlags: 0
  m_IsActive: 1
--- !u!4 &2018486525
Transform:
  m_ObjectHideFlags: 0
  m_PrefabParentObject: {fileID: 0}
  m_PrefabInternal: {fileID: 0}
  m_GameObject: {fileID: 2018486524}
  m_LocalRotation: {x: 0, y: 0, z: 0, w: 1}
  m_LocalPosition: {x: 0, y: 0, z: 0}
  m_LocalScale: {x: 1, y: 1, z: 1}
  m_Children:
  - {fileID: 1828677171}
  - {fileID: 1050060385}
  m_Father: {fileID: 0}
--- !u!20 &2018486526
Camera:
  m_ObjectHideFlags: 0
  m_PrefabParentObject: {fileID: 0}
  m_PrefabInternal: {fileID: 0}
  m_GameObject: {fileID: 2018486524}
  m_Enabled: 1
  serializedVersion: 2
  m_ClearFlags: 3
  m_BackGroundColor: {r: .192156866, g: .301960796, b: .474509805, a: .0196078438}
  m_NormalizedViewPortRect:
    serializedVersion: 2
    x: 0
    y: 0
    width: 1
    height: 1
  near clip plane: .300000012
  far clip plane: 10
  field of view: 60
  orthographic: 1
  orthographic size: 5
  m_Depth: 30
  m_CullingMask:
    serializedVersion: 2
    m_Bits: 524288
  m_RenderingPath: -1
  m_TargetTexture: {fileID: 0}
  m_HDR: 0
--- !u!114 &2018486527
MonoBehaviour:
  m_ObjectHideFlags: 0
  m_PrefabParentObject: {fileID: 0}
  m_PrefabInternal: {fileID: 0}
  m_GameObject: {fileID: 2018486524}
  m_Enabled: 1
  m_EditorHideFlags: 0
  m_Script: {fileID: 11500000, guid: e50b923fb3a9346c3a064130b429d231, type: 3}
  m_Name: 
  card: {fileID: 1828677170}
  link: {fileID: 1050060384}
--- !u!114 &2018486528
MonoBehaviour:
  m_ObjectHideFlags: 0
  m_PrefabParentObject: {fileID: 0}
  m_PrefabInternal: {fileID: 0}
  m_GameObject: {fileID: 2018486524}
  m_Enabled: 1
  m_EditorHideFlags: 0
  m_Script: {fileID: 11500000, guid: 244eedec6891749c095a1840d77ab116, type: 3}
  m_Name: 
  adjustX: 1
  adjustY: 1
  adjustWidth: 1
  adjustHeight: 1
--- !u!1 &2033310883
GameObject:
  m_ObjectHideFlags: 0
  m_PrefabParentObject: {fileID: 100030, guid: 35957c42b06f5464dad63783019724fa, type: 2}
  m_PrefabInternal: {fileID: 467471607}
  serializedVersion: 4
  m_Component:
  - 4: {fileID: 2033310884}
  - 102: {fileID: 2033310886}
  - 23: {fileID: 2033310885}
  - 114: {fileID: 2033310887}
  m_Layer: 17
  m_Name: Build
  m_TagString: Untagged
  m_Icon: {fileID: 0}
  m_NavMeshLayer: 0
  m_StaticEditorFlags: 0
  m_IsActive: 1
--- !u!4 &2033310884
Transform:
  m_ObjectHideFlags: 0
  m_PrefabParentObject: {fileID: 400030, guid: 35957c42b06f5464dad63783019724fa, type: 2}
  m_PrefabInternal: {fileID: 467471607}
  m_GameObject: {fileID: 2033310883}
  m_LocalRotation: {x: -4.65661243e-09, y: -3.55765195e-07, z: -7.45057971e-09, w: -1}
  m_LocalPosition: {x: 17.5200005, y: 9.5, z: 4.9998908}
  m_LocalScale: {x: 1, y: 1, z: 1}
  m_Children: []
  m_Father: {fileID: 1044915035}
--- !u!23 &2033310885
Renderer:
  m_ObjectHideFlags: 0
  m_PrefabParentObject: {fileID: 2300028, guid: 35957c42b06f5464dad63783019724fa,
    type: 2}
  m_PrefabInternal: {fileID: 467471607}
  m_GameObject: {fileID: 2033310883}
  m_Enabled: 1
  m_CastShadows: 1
  m_ReceiveShadows: 1
  m_LightmapIndex: 255
  m_LightmapTilingOffset: {x: 1, y: 1, z: 0, w: 0}
  m_Materials:
  - {fileID: 2100000, guid: f36546d0d1d484126aad50ee331961c0, type: 2}
  m_SubsetIndices: 
  m_StaticBatchRoot: {fileID: 0}
  m_UseLightProbes: 0
  m_LightProbeAnchor: {fileID: 0}
  m_ScaleInLightmap: 1
--- !u!102 &2033310886
TextMesh:
  serializedVersion: 3
  m_ObjectHideFlags: 0
  m_PrefabParentObject: {fileID: 10200012, guid: 35957c42b06f5464dad63783019724fa,
    type: 2}
  m_PrefabInternal: {fileID: 467471607}
  m_GameObject: {fileID: 2033310883}
  m_Text: v0.0.10
  m_OffsetZ: 0
  m_CharacterSize: .150000006
  m_LineSpacing: 1
  m_Anchor: 5
  m_Alignment: 2
  m_TabSize: 4
  m_FontSize: 0
  m_FontStyle: 0
  m_RichText: 1
  m_Font: {fileID: 12800000, guid: ba4f4b55f5d8349f78a4a719ff8439ed, type: 3}
--- !u!114 &2033310887
MonoBehaviour:
  m_ObjectHideFlags: 0
  m_PrefabParentObject: {fileID: 11400020, guid: 35957c42b06f5464dad63783019724fa,
    type: 2}
  m_PrefabInternal: {fileID: 467471607}
  m_GameObject: {fileID: 2033310883}
  m_Enabled: 1
  m_EditorHideFlags: 0
  m_Script: {fileID: 11500000, guid: 98e2a25e501e644bc80de2555b46014c, type: 3}
  m_Name: 
  camera: {fileID: 1044915036}
  hAlign: 0
  vAlign: 0
  type: 0
  x: 10
  y: 20
