%YAML 1.1
%TAG !u! tag:unity3d.com,2011:
--- !u!21 &2100000
Material:
  serializedVersion: 3
  m_ObjectHideFlags: 0
  m_PrefabParentObject: {fileID: 0}
  m_PrefabInternal: {fileID: 0}
  m_Name: WaterCamera
  m_Shader: {fileID: 4800000, guid: e1875da193bbe4f21ba2daa0dafd99b8, type: 1}
  m_SavedProperties:
    serializedVersion: 2
    m_TexEnvs:
      data:
        first:
          name: _MainTex
        second:
          m_Texture: {fileID: 2800000, guid: b2cd09a1d94bd4f87addfd0b6bc96abc, type: 1}
          m_Scale: {x: 1, y: 1}
          m_Offset: {x: 0, y: 0}
      data:
        first:
          name: _BumpMap
        second:
          m_Texture: {fileID: 2800000, guid: a3cf6a93e2bf84863a9cff0c5535c444, type: 1}
          m_Scale: {x: 5, y: 5}
          m_Offset: {x: 0, y: 0}
      data:
        first:
          name: _Cube
        second:
          m_Texture: {fileID: 8900000, guid: 4649bedd3b44f4cfe9b940a608de8e6c, type: 2}
          m_Scale: {x: 1, y: 1}
          m_Offset: {x: 0, y: 0}
      data:
        first:
          name: _RefractTex
        second:
          m_Texture: {fileID: 8900000, guid: 51e3f49dbd110a7011005aba44295342, type: 2}
          m_Scale: {x: 100, y: 100}
          m_Offset: {x: 0, y: 0}
      data:
        first:
          name: _ReflectTex
        second:
          m_Texture: {fileID: 8900000, guid: 9cda328e4b6954d70841a8a66f42ec08, type: 1}
          m_Scale: {x: 100, y: 100}
          m_Offset: {x: 0, y: 0}
    m_Floats:
      data:
        first:
          name: _Shininess
        second: .078125
      data:
        first:
          name: _BumpAmt
        second: 4.92307997
    m_Colors:
      data:
        first:
          name: _Color
        second: {r: 1, g: 1, b: 1, a: .49000001}
      data:
        first:
          name: _SpecColor
        second: {r: .5, g: .5, b: .5, a: 0}
      data:
        first:
          name: _TintColor
        second: {r: .656302989, g: .981265664, b: 1, a: 1}
      data:
        first:
          name: _ReflectColor
        second: {r: 1, g: 1, b: 1, a: .5}
