%YAML 1.1
%TAG !u! tag:unity3d.com,2011:
--- !u!21 &2100000
Material:
  serializedVersion: 3
  m_ObjectHideFlags: 0
  m_PrefabParentObject: {fileID: 0}
  m_PrefabInternal: {fileID: 0}
  m_Name: Laser
  m_Shader: {fileID: 4800000, guid: 0dd61024e431c604b98b065d182e0222, type: 3}
  m_SavedProperties:
    serializedVersion: 2
    m_TexEnvs:
      data:
        first:
          name: _MainTex
        second:
          m_Texture: {fileID: 2800000, guid: d526043f13692a54099b11056e2ba397, type: 3}
          m_Scale: {x: 1, y: 1}
          m_Offset: {x: 0, y: 0}
      data:
        first:
          name: _BumpMap
        second:
          m_Texture: {fileID: 2800000, guid: 3245ad57ba83f3e4eae19892990f6c0f, type: 3}
          m_Scale: {x: 1, y: 1}
          m_Offset: {x: 0, y: 0}
      data:
        first:
          name: _SpecularTex
        second:
          m_Texture: {fileID: 2800000, guid: 45a99b5f5c9819544bcf8b2d9f927c5e, type: 3}
          m_Scale: {x: 1, y: 1}
          m_Offset: {x: 0, y: 0}
      data:
        first:
          name: _RampTex
        second:
          m_Texture: {fileID: 2800000, guid: 8c24ce677edcdb04481dc0b4e9924ca2, type: 3}
          m_Scale: {x: 1, y: 1}
          m_Offset: {x: 0, y: 0}
    m_Floats:
      data:
        first:
          name: _RimPower
        second: 3
      data:
        first:
          name: _IllumPower
        second: 10
    m_Colors:
      data:
        first:
          name: _RimColor
        second: {r: 0, g: 0, b: 0, a: 0}
      data:
        first:
          name: _ChannelA
        second: {r: .58431375, g: .58431375, b: .58431375, a: 1}
      data:
        first:
          name: _ChannelB
        second: {r: .223529413, g: .223529413, b: .223529413, a: 1}
      data:
        first:
          name: _ChannelC
        second: {r: .171642005, g: .171642005, b: .171642005, a: 1}
