%YAML 1.1
%TAG !u! tag:unity3d.com,2011:
--- !u!21 &2100000
Material:
  serializedVersion: 3
  m_ObjectHideFlags: 0
  m_PrefabParentObject: {fileID: 0}
  m_PrefabInternal: {fileID: 0}
  m_Name: gaiser_radioactive
  m_Shader: {fileID: 4800000, guid: 25d7e81d44396494f93ee82f8257384b, type: 1}
  m_SavedProperties:
    serializedVersion: 2
    m_TexEnvs:
      data:
        first:
          name: _MainTex
        second:
          m_Texture: {fileID: 2800000, guid: 0006286cb55ba1941ac81a90bdca9115, type: 1}
          m_Scale: {x: 1, y: 1}
          m_Offset: {x: 0, y: 0}
    m_Floats:
      data:
        first:
          name: _Cutoff
        second: .5
      data:
        first:
          name: _InvFade
        second: .137500003
      data:
        first:
          name: _Fade
        second: 3
    m_Colors:
      data:
        first:
          name: _Color
        second: {r: .773583055, g: .751509845, b: .772289097, a: .0199999996}
      data:
        first:
          name: _TintColor
        second: {r: .132112384, g: .633470833, b: .679388225, a: .305882365}
