%YAML 1.1
%TAG !u! tag:unity3d.com,2011:
--- !u!21 &2100000
Material:
  serializedVersion: 3
  m_ObjectHideFlags: 0
  m_PrefabParentObject: {fileID: 0}
  m_PrefabInternal: {fileID: 0}
  m_Name: GroundTop
  m_Shader: {fileID: 4800000, guid: 0dd61024e431c604b98b065d182e0222, type: 3}
  m_SavedProperties:
    serializedVersion: 2
    m_TexEnvs:
      data:
        first:
          name: _MainTex
        second:
          m_Texture: {fileID: 2800000, guid: fbe5a94f80b2b4589919bcfec6ad0f53, type: 3}
          m_Scale: {x: .75, y: .75}
          m_Offset: {x: 0, y: 0}
      data:
        first:
          name: _BumpMap
        second:
          m_Texture: {fileID: 2800000, guid: 7d993b2515ba84629aed689e9d032d78, type: 3}
          m_Scale: {x: 1, y: 1}
          m_Offset: {x: 0, y: 0}
      data:
        first:
          name: _SpecularTex
        second:
          m_Texture: {fileID: 2800000, guid: 98d752ac5c7d19f409de628f404d00d4, type: 3}
          m_Scale: {x: 1, y: 1}
          m_Offset: {x: 0, y: 0}
      data:
        first:
          name: _RampTex
        second:
          m_Texture: {fileID: 2800000, guid: 8c24ce677edcdb04481dc0b4e9924ca2, type: 3}
          m_Scale: {x: 1, y: 1}
          m_Offset: {x: 0, y: 0}
      data:
        first:
          name: _ParallaxMap
        second:
          m_Texture: {fileID: 0}
          m_Scale: {x: 1, y: 1}
          m_Offset: {x: 0, y: 0}
    m_Floats:
      data:
        first:
          name: _RimPower
        second: 2.01862812
      data:
        first:
          name: _IllumPower
        second: 0
      data:
        first:
          name: _Parallax
        second: .0199999996
    m_Colors:
      data:
        first:
          name: _Color
        second: {r: .800000012, g: .800000012, b: .800000012, a: 1}
      data:
        first:
          name: _TintColor
        second: {r: .536134839, g: .514519274, b: .50053829, a: .5}
      data:
        first:
          name: _RimColor
        second: {r: .507468343, g: .834675074, b: .99999994, a: .345098048}
      data:
        first:
          name: _IllumTint
        second: {r: .0400980264, g: .45966056, b: .671641827, a: 1}
      data:
        first:
          name: _ChannelA
        second: {r: .270588249, g: .270588249, b: .270588249, a: 1}
      data:
        first:
          name: _ChannelB
        second: {r: 0, g: 0, b: 0, a: 1}
      data:
        first:
          name: _ChannelC
        second: {r: 0, g: 0, b: 0, a: .768627465}
      data:
        first:
          name: _Tint
        second: {r: .23880595, g: .23880595, b: .23880595, a: 1}
