ext_line_xform as xform
ext_line_xform local_to gaia

################################################
# extension_line01
################################################
extension_line001 . position [0,0,0]
extension_line001 . rotation [0,0,0]
extension_line001 . permissions 31
extension_line001 as extension_line
extension_line001 local_to ext_line_xform