floater_xform as xform
floater_xform local_to gaia

################################################
# floater001
################################################
floater001 . position [0,0,0]
floater001 . rotation [0,0,0]
floater001 . permissions 31
floater001 as floater
floater001 local_to floater_xform