hover_xform as xform
hover_xform local_to gaia

################################################
# hover001
################################################
hover001 . position [0,0,0]
hover001 . rotation [0,0,0]
hover001 . permissions 31
hover001 as hover
hover001 local_to hover_xform