magnet_xform as xform
magnet_xform local_to gaia

################################################
##magnet001
################################################
magnet001 . position [0,0,0]
magnet001 . rotation [0,0,0]
magnet001 . permissions 31
magnet001 as magnet
magnet001 local_to magnet_xform