speaker_xform as xform
speaker_xform local_to gaia

################################################
# speaker001
################################################
speaker001 . position [0,0,0]
speaker001 . rotation [0,0,0]
speaker001 . permissions 31
speaker001 as speaker
speaker001 local_to speaker_xform