spotlight_xform as xform
spotlight_xform local_to gaia

################################################
# spot_light001
################################################
spot_light001 . position [0,0,0]
spot_light001 . rotation [0,0,0]
spot_light001 . permissions 31
spot_light001 as spot_light
spot_light001 local_to spotlight_xform