%YAML 1.1
%TAG !u! tag:unity3d.com,2011:
--- !u!21 &2100000
Material:
  serializedVersion: 3
  m_ObjectHideFlags: 0
  m_PrefabParentObject: {fileID: 0}
  m_PrefabInternal: {fileID: 0}
  m_Name: mcn_sht_tzr_gen01_01_dif
  m_Shader: {fileID: 4800000, guid: 0dd61024e431c604b98b065d182e0222, type: 1}
  m_SavedProperties:
    serializedVersion: 2
    m_TexEnvs:
      data:
        first:
          name: _MainTex
        second:
          m_Texture: {fileID: 2800000, guid: 2f3dcd21a0d1d98409d486bce25e7915, type: 1}
          m_Scale: {x: 1, y: 1}
          m_Offset: {x: 0, y: 0}
      data:
        first:
          name: _BumpMap
        second:
          m_Texture: {fileID: 0}
          m_Scale: {x: 1, y: 1}
          m_Offset: {x: 0, y: 0}
      data:
        first:
          name: _SpecularTex
        second:
          m_Texture: {fileID: 2800000, guid: bac3e6d9b2af5cb41b0af0edfcbb2424, type: 1}
          m_Scale: {x: 1, y: 1}
          m_Offset: {x: 0, y: 0}
      data:
        first:
          name: _RampTex
        second:
          m_Texture: {fileID: 2800000, guid: 8c24ce677edcdb04481dc0b4e9924ca2, type: 1}
          m_Scale: {x: 1, y: 1}
          m_Offset: {x: 0, y: 0}
      data:
        first:
          name: _Normal
        second:
          m_Texture: {fileID: 0}
          m_Scale: {x: 1, y: 1}
          m_Offset: {x: 0, y: 0}
      data:
        first:
          name: _Base
        second:
          m_Texture: {fileID: 2800000, guid: c81344a50d99a0e489aa1a84a26bae8a, type: 1}
          m_Scale: {x: 1, y: 1}
          m_Offset: {x: 0, y: 0}
    m_Floats:
      data:
        first:
          name: _Cutoff
        second: .5
      data:
        first:
          name: _RimPower
        second: 5
      data:
        first:
          name: _IllumPower
        second: 10
    m_Colors:
      data:
        first:
          name: _Color
        second: {r: .800000012, g: .800000012, b: .800000012, a: 1}
      data:
        first:
          name: _RimColor
        second: {r: .350746274, g: .727585852, b: 1, a: .749019623}
      data:
        first:
          name: _ChannelA
        second: {r: 0, g: 0, b: 0, a: 1}
      data:
        first:
          name: _ChannelB
        second: {r: .097014904, g: .097014904, b: .097014904, a: 1}
      data:
        first:
          name: _ChannelC
        second: {r: .194029868, g: .194029868, b: .194029868, a: 1}
