%YAML 1.1
%TAG !u! tag:unity3d.com,2011:
--- !u!21 &2100000
Material:
  serializedVersion: 3
  m_ObjectHideFlags: 0
  m_PrefabParentObject: {fileID: 0}
  m_PrefabInternal: {fileID: 0}
  m_Name: magnet
  m_Shader: {fileID: 4800000, guid: 0dd61024e431c604b98b065d182e0222, type: 1}
  m_SavedProperties:
    serializedVersion: 2
    m_TexEnvs:
      data:
        first:
          name: _MainTex
        second:
          m_Texture: {fileID: 2800000, guid: 88fd5c6195401374b88b97bea1c1f5a5, type: 1}
          m_Scale: {x: 1, y: 1}
          m_Offset: {x: 0, y: 0}
      data:
        first:
          name: _BumpMap
        second:
          m_Texture: {fileID: 2800000, guid: 7532c0a6f5afd504aadfd0a41c4ff066, type: 1}
          m_Scale: {x: 1, y: 1}
          m_Offset: {x: 0, y: 0}
      data:
        first:
          name: _SpecularTex
        second:
          m_Texture: {fileID: 2800000, guid: bf181e21be775b241b18d3bf234af111, type: 1}
          m_Scale: {x: 1, y: 1}
          m_Offset: {x: 0, y: 0}
      data:
        first:
          name: _RampTex
        second:
          m_Texture: {fileID: 2800000, guid: 8c24ce677edcdb04481dc0b4e9924ca2, type: 1}
          m_Scale: {x: 1, y: 1}
          m_Offset: {x: 0, y: 0}
    m_Floats:
      data:
        first:
          name: _RimPower
        second: 2.55384612
      data:
        first:
          name: _IllumPower
        second: 20.1923084
    m_Colors:
      data:
        first:
          name: _Color
        second: {r: .800000012, g: .800000012, b: .800000012, a: 1}
      data:
        first:
          name: _RimColor
        second: {r: .400000006, g: .800000012, b: 1, a: 1}
      data:
        first:
          name: _ChannelA
        second: {r: .49253732, g: .49253732, b: .49253732, a: 1}
      data:
        first:
          name: _ChannelB
        second: {r: .302582055, g: .254023015, b: .297261328, a: 1}
      data:
        first:
          name: _ChannelC
        second: {r: .134328365, g: .134328365, b: .134328365, a: 1}
      data:
        first:
          name: _IllumTint
        second: {r: 1, g: 1, b: 1, a: 1}
