
################################################
# bc_01
################################################

bc_01 . position [0,8,-2]
bc_01 . rotation [0,0,0]

################################################
# chest_01
################################################

chest_01 . position [0,8,-1]
chest_01 . rotation [270,90,0]

################################################
# spine
################################################

################################################
# neck_01
################################################

neck_01 . position [0,12,-2]
neck_01 . rotation [0,0,0]

################################################
# head_01
################################################

head_01 . position [0,14,-2]
head_01 . rotation [0,0,0]

################################################
# bx_spine_01
################################################

bx_spine_01 . position [0,10,-5]
bx_spine_01 . rotation [0,0,0]

################################################
# bx_spine_02
################################################

bx_spine_02 . position [0,7,-7]
bx_spine_02 . rotation [0,0,0]

################################################
# bx_spine_03
################################################

bx_spine_03 . position [0,4,-4]
bx_spine_03 . rotation [0,0,0]

################################################
# be_spine_01
################################################

be_spine_01 . position [0,2,-4]
be_spine_01 . rotation [0,0,90]

################################################
# be_spine_02
################################################

be_spine_02 . position [0,0,-4]
be_spine_02 . rotation [0,90,90]

################################################
# bx_spine_04
################################################

bx_spine_04 . position [0,-2,-4]
bx_spine_04 . rotation [0,0,0]

################################################
# upper right
################################################

################################################
# bx_right_01
################################################

bx_right_01 . position [4,12,-4]
bx_right_01 . rotation [0,0,0]

################################################
# pad_right_01
################################################

pad_right_01 . position [3,13,-4]
pad_right_01 . rotation [290,270,90]

################################################
# bm_right_01
################################################

bm_right_01 . position [6,12,-4]
bm_right_01 . rotation [90,0,0]

################################################
# be_right_10
################################################

be_right_10 . position [8,12,-4]
be_right_10 . rotation [0,0,0]

################################################
# be_right_11
################################################

be_right_11 . position [14,12,-4]
be_right_11 . rotation [30,0,0]

################################################
# fist_right_10
################################################

fist_right_10 . position [20,12,-4]
fist_right_10 . rotation [0,90,0]

################################################
# upper left
################################################

################################################
# bx_left_01
################################################

bx_left_01 . position [-4,12,-4]
bx_left_01 . rotation [0,0,0]

################################################
# pad_left_01
################################################

pad_left_01 . position [-3,13,-4]
pad_left_01 . rotation [290,90,90]

################################################
# bm_left_01
################################################

bm_left_01 . position [-6,12,-4]
bm_left_01 . rotation [90,0,180]

################################################
# be_left_10
################################################

be_left_10 . position [-8,12,-4]
be_left_10 . rotation [0,180,0]

################################################
# be_left_11
################################################

be_left_11 . position [-14,12,-4]
be_left_11 . rotation [-30,180,0]

################################################
# fist_left_10
################################################

fist_left_10 . position [-20,12,-4]
fist_left_10 . rotation [0,-90,0]

################################################
# lower right
################################################

################################################
# bm_right_03
################################################

bm_right_03 . position [2,-2,-4]
bm_right_03 . rotation [0,180,90]

################################################
# bx_right_04
################################################

bx_right_04 . position [6,-2,-4]
bx_right_04 . rotation [0,0,0]

################################################
# be_right_01
################################################

be_right_01 . position [6,-4,-4]
be_right_01 . rotation [0,180,90]

################################################
# pt_right_01
################################################

pt_right_01 . position [6,-8,-4]
pt_right_01 . rotation [0,0,0]

################################################
# be_right_02
################################################

be_right_02 . position [6,-10,-4]
be_right_02 . rotation [0,180,90]

################################################
# bf_right_01
################################################

bf_right_01 . position [6,-12,-4]
bf_right_01 . rotation [0,0,0]


################################################
# lower left
################################################

################################################
# bm_left_03
################################################

bm_left_03 . position [-2,-2,-4]
bm_left_03 . rotation [0,0,90]

################################################
# bx_left_04
################################################

bx_left_04 . position [-6,-2,-4]
bx_left_04 . rotation [0,0,0]

################################################
# be_left_01
################################################

be_left_01 . position [-6,-4,-4]
be_left_01 . rotation [0,0,90]

################################################
# pt_left_01
################################################

pt_left_01 . position [-6,-8,-4]
pt_left_01 . rotation [0,0,0]

################################################
# be_left_02
################################################

be_left_02 . position [-6,-10,-4]
be_left_02 . rotation [0,0,90]

################################################
# bf_left_01
################################################

bf_left_01 . position [-6,-12,-4]
bf_left_01 . rotation [0,0,0]

