%YAML 1.1
%TAG !u! tag:unity3d.com,2011:
--- !u!21 &2100000
Material:
  serializedVersion: 3
  m_ObjectHideFlags: 0
  m_PrefabParentObject: {fileID: 0}
  m_PrefabInternal: {fileID: 0}
  m_Name: Pinton02
  m_Shader: {fileID: 4800000, guid: 0dd61024e431c604b98b065d182e0222, type: 3}
  m_SavedProperties:
    serializedVersion: 2
    m_TexEnvs:
      data:
        first:
          name: _MainTex
        second:
          m_Texture: {fileID: 2800000, guid: 09dfa766e9a7f6e4fb361487d357e978, type: 3}
          m_Scale: {x: 1, y: 1}
          m_Offset: {x: 0, y: 0}
      data:
        first:
          name: _BumpMap
        second:
          m_Texture: {fileID: 2800000, guid: ee1f06e9838614b4dbaac4bb14834756, type: 3}
          m_Scale: {x: 1, y: 1}
          m_Offset: {x: 0, y: 0}
      data:
        first:
          name: _SpecularTex
        second:
          m_Texture: {fileID: 2800000, guid: 62a5445fccaff2f45ad0bcb395037625, type: 3}
          m_Scale: {x: 1, y: 1}
          m_Offset: {x: 0, y: 0}
    m_Floats:
      data:
        first:
          name: _RimPower
        second: 3
      data:
        first:
          name: _IllumPower
        second: 25
    m_Colors:
      data:
        first:
          name: _Color
        second: {r: 1, g: 1, b: 1, a: 1}
      data:
        first:
          name: _RimColor
        second: {r: .880001843, g: .934546411, b: .99999994, a: .749019623}
      data:
        first:
          name: _IllumTint
        second: {r: 0, g: .435851336, b: .588235319, a: 1}
      data:
        first:
          name: _ChannelA
        second: {r: .134328365, g: .134328365, b: .134328365, a: 1}
      data:
        first:
          name: _ChannelB
        second: {r: .171641767, g: 0, b: 0, a: 1}
      data:
        first:
          name: _ChannelC
        second: {r: .24626863, g: .242592975, b: .242592975, a: 1}
