%YAML 1.1
%TAG !u! tag:unity3d.com,2011:
--- !u!21 &2100000
Material:
  serializedVersion: 3
  m_ObjectHideFlags: 0
  m_PrefabParentObject: {fileID: 0}
  m_PrefabInternal: {fileID: 0}
  m_Name: Rocks
  m_Shader: {fileID: 4800000, guid: 3e6033449f239428d919fc9d848298bd, type: 1}
  m_SavedProperties:
    serializedVersion: 2
    m_TexEnvs:
      data:
        first:
          name: _MainTex
        second:
          m_Texture: {fileID: 2800000, guid: e4a1f2485e5f64291804ce8e8fdc11f6, type: 1}
          m_Scale: {x: 15, y: 15}
          m_Offset: {x: 0, y: 0}
      data:
        first:
          name: _BumpMap
        second:
          m_Texture: {fileID: 2800000, guid: 135870c80e4429b488cbc4a2da047b1f, type: 1}
          m_Scale: {x: 4, y: 6}
          m_Offset: {x: 0, y: 0}
      data:
        first:
          name: _Detail
        second:
          m_Texture: {fileID: 2800000, guid: 8f34822720e8a6342a244f79fbed6ffb, type: 1}
          m_Scale: {x: 20, y: 20}
          m_Offset: {x: 0, y: 0}
      data:
        first:
          name: _SpecularTex
        second:
          m_Texture: {fileID: 0}
          m_Scale: {x: 1, y: 1}
          m_Offset: {x: 0, y: 0}
      data:
        first:
          name: _RampTex
        second:
          m_Texture: {fileID: 2800000, guid: 8c24ce677edcdb04481dc0b4e9924ca2, type: 1}
          m_Scale: {x: 1, y: 1}
          m_Offset: {x: 0, y: 0}
      data:
        first:
          name: _Normal
        second:
          m_Texture: {fileID: 0}
          m_Scale: {x: 1, y: 1}
          m_Offset: {x: 0, y: 0}
      data:
        first:
          name: _Base
        second:
          m_Texture: {fileID: 2800000, guid: 586a4359389d87c40b5473e9f5da4160, type: 1}
          m_Scale: {x: 1, y: 1}
          m_Offset: {x: 0, y: 0}
    m_Floats:
      data:
        first:
          name: _RimPower
        second: 2.40298486
    m_Colors:
      data:
        first:
          name: _Color
        second: {r: 1, g: .867967844, b: .828358173, a: 1}
      data:
        first:
          name: _RimColor
        second: {r: .040960025, g: .0459626801, b: .0558235049, a: .219999999}
      data:
        first:
          name: _ChannelA
        second: {r: .634328365, g: .634328365, b: .634328365, a: 1}
      data:
        first:
          name: _ChannelB
        second: {r: .567164183, g: .567164183, b: .567164183, a: 1}
      data:
        first:
          name: _ChannelC
        second: {r: .24626863, g: .24626863, b: .24626863, a: 1}
      data:
        first:
          name: _TintColor
        second: {r: .348895282, g: .394602209, b: .398934484, a: .409999996}
