%YAML 1.1
%TAG !u! tag:unity3d.com,2011:
--- !u!21 &2100000
Material:
  serializedVersion: 3
  m_ObjectHideFlags: 0
  m_PrefabParentObject: {fileID: 0}
  m_PrefabInternal: {fileID: 0}
  m_Name: WaterAurora
  m_Shader: {fileID: 4800000, guid: 869ee15283e4a410d91b3fa49661d1ea, type: 1}
  m_SavedProperties:
    serializedVersion: 2
    m_TexEnvs:
      data:
        first:
          name: _MainTex
        second:
          m_Texture: {fileID: 2800000, guid: 1232556fc2eb64470b784fe4e89e043e, type: 1}
          m_Scale: {x: 10, y: 10}
          m_Offset: {x: 0, y: 0}
      data:
        first:
          name: _BumpMap
        second:
          m_Texture: {fileID: 0}
          m_Scale: {x: 1, y: 1}
          m_Offset: {x: 0, y: 0}
      data:
        first:
          name: _ParallaxMap
        second:
          m_Texture: {fileID: 0}
          m_Scale: {x: 1, y: 1}
          m_Offset: {x: 0, y: 0}
      data:
        first:
          name: _DecalTex
        second:
          m_Texture: {fileID: 0}
          m_Scale: {x: 1, y: 1}
          m_Offset: {x: 0, y: 0}
    m_Floats:
      data:
        first:
          name: _Shininess
        second: .078125
      data:
        first:
          name: _InvFade
        second: 1.30417919
      data:
        first:
          name: _Parallax
        second: .0199999996
      data:
        first:
          name: _BumpAmt
        second: 10
      data:
        first:
          name: _Fade
        second: .0546268672
    m_Colors:
      data:
        first:
          name: _Color
        second: {r: .800000012, g: .800000012, b: .800000012, a: 1}
      data:
        first:
          name: _SpecColor
        second: {r: .5, g: .5, b: .5, a: 1}
      data:
        first:
          name: _TintColor
        second: {r: .52615416, g: .648904324, b: .99999994, a: 0}
